#            R             Pt             Pn          Pt-Pn      dPndr*r/2 
#         [nm]          [bar]          [bar]          [bar]          [bar] 
        0.0608     -1033.0597      -980.1357       -52.9240      -119.4940 
        0.1823        38.5742       304.6065      -266.0323       847.9995 
        0.3039       440.3577       204.4299       235.9278      -617.5588 
        0.4254       202.7983        10.1409       192.6575       -46.1417 
        0.5470       105.2927         4.5246       100.7681        -0.9876 
        0.6685        54.6222         8.6229        45.9993        16.4466 
        0.7901        51.4693        14.6153        36.8539        10.0567 
        0.9116        20.6415        11.1117         9.5298         4.0601 
        1.0332        20.5107        10.1578        10.3529        -0.2395 
        1.1547        12.0117        13.3040        -1.2923        -1.5282 
        1.2763        13.4673        15.0825        -1.6152         1.5032 
        1.3978        15.2791        14.4484         0.8307         6.5656 
        1.5194        17.7851        15.9293         1.8558        10.1207 
        1.6409        19.2743        18.5281         0.7462        11.6001 
        1.7625        16.2548        20.3850        -4.1302        10.4367 
        1.8840        18.5765        21.5514        -2.9748         6.0635 
        2.0056        17.1257        20.3415        -3.2158         0.4730 
        2.1271        18.8444        19.6258        -0.7814        -3.7209 
        2.2487        19.0904        17.3261         1.7644        -6.1547 
        2.3702        16.4184        17.6037        -1.1854        -6.4647 
        2.4918        20.8931        18.0161         2.8771        -5.5595 
        2.6133        18.6536        17.5940         1.0596        -4.5963 
        2.7349        18.6463        17.9554         0.6909        -3.5836 
        2.8564        19.0668        17.7482         1.3185        -2.5303 
        2.9780        19.6527        18.4595         1.1932        -1.4450 
        3.0995        18.3702        17.7962         0.5739        -0.3365 
        3.2210        18.9892        17.3712         1.6180         0.7864 
        3.3426        18.8389        18.4254         0.4134         1.9151 
        3.4641        19.0138        18.1440         0.8698         3.0409 
        3.5857        21.2118        18.6985         2.5132         4.1550 
        3.7072        20.9867        18.7084         2.2783         5.2486 
        3.8288        22.4667        17.7454         4.7213         6.3131 
        3.9503        25.3203        17.2017         8.1186         7.3398 
        4.0719        28.1079        18.2402         9.8676         8.3198 
        4.1934        31.4751        19.1777        12.2975         9.2445 
        4.3150        32.3893        19.8604        12.5289        10.1052 
        4.4365        34.9150        20.4488        14.4662        10.8931 
        4.5581        37.2566        21.5904        15.6663        11.5995 
        4.6796        36.2802        22.7861        13.4941        12.2157 
        4.8012        38.3326        23.2584        15.0743        12.8692 
        4.9227        40.4769        23.9178        16.5591        13.7015 
        5.0443        40.0276        24.5492        15.4784        14.7245 
        5.1658        41.6480        25.1311        16.5168        15.9503 
        5.2874        43.1514        26.1957        16.9556        17.3907 
        5.4089        45.3155        27.1177        18.1978        19.0579 
        5.5305        48.5710        27.6538        20.9173        20.9637 
        5.6520        52.6884        27.8078        24.8807        23.1201 
        5.7736        57.9641        29.1306        28.8335        25.5391 
        5.8951        63.3034        30.0500        33.2533        28.2328 
        6.0167        66.8586        31.0729        35.7857        31.2130 
        6.1382        72.9490        32.7456        40.2034        34.4918 
        6.2598        79.1308        34.1974        44.9334        38.0811 
        6.3813        84.2411        35.8201        48.4210        41.9930 
        6.5029        92.5840        37.2088        55.3752        46.2393 
        6.6244       100.0430        38.9608        61.0822        50.8322 
        6.7460       106.6705        41.6608        65.0096        55.7835 
        6.8675       115.2922        44.4397        70.8525        61.1052 
        6.9891       120.2088        47.1869        73.0219        66.8093 
        7.1106       114.5759        48.8702        65.7057        66.5089 
        7.2322       101.1948        50.3567        50.8381        53.3792 
        7.3537        75.7076        51.0632        24.6444        26.7767 
        7.4753        34.5384        50.5590       -16.0207       -13.9444 
        7.5968       -18.6718        49.3859       -68.0577       -69.4268 
        7.7184       -76.9523        47.1553      -124.1076      -124.5075 
        7.8399      -132.5518        43.5618      -176.1135      -163.0240 
        7.9615      -177.2265        38.1460      -215.3725      -184.1284 
        8.0830      -201.0860        32.4482      -233.5343      -186.9702 
        8.2046      -198.5376        26.2656      -224.8032      -177.0056 
        8.3261      -174.8419        20.6910      -195.5329      -160.0645 
        8.4477      -136.9763        16.0136      -152.9899      -135.8572 
        8.5692       -93.6174        12.8662      -106.4836      -104.0956 
        8.6908       -52.2161        11.4041       -63.6202       -64.4894 
        8.8123       -21.0778        10.6874       -31.7653       -26.3830 
        8.9339        -0.8201        10.0423       -10.8624         0.3517 
        9.0554        10.8167        10.2426         0.5741        15.2049 
        9.1769        14.3511        10.2799         4.0712        17.6695 
        9.2985        14.6333        10.6225         4.0107        13.9239 
        9.4200        13.3621        11.2045         2.1576        10.4970 
        9.5416        11.9949        11.1483         0.8466         7.4053 
        9.6631        11.8313        11.3231         0.5082         4.6649 
        9.7847        11.7779        11.6433         0.1346         2.2923 
        9.9062        11.6792        11.3721         0.3071         0.3039 
       10.0278        11.7436        11.1719         0.5717        -1.2840 
       10.1493        11.8669        11.0463         0.8206        -2.4550 
       10.2709        12.3550        11.0221         1.3329        -3.1928 
       10.3924        13.1092        11.1846         1.9246        -3.4809 
       10.5140        13.1035        11.3306         1.7730        -3.3031 
       10.6355        14.2480        11.3113         2.9367        -2.6429 
       10.7571        15.1167        11.5193         3.5974        -1.4840 
       10.8786        16.1764        11.5431         4.6333         0.1900 
       11.0002        17.0397        11.4604         5.5794         2.3955 
       11.1217        18.5101        11.3661         7.1440         5.1487 
       11.2433        19.7066        11.5892         8.1174         8.4661 
       11.3648        21.3287        12.0000         9.3287        12.3640 
       11.4864        22.4032        12.0268        10.3765        16.8589 
       11.6079        23.3184        12.2692        11.0492        20.8306 
       11.7295        24.1838        12.5989        11.5849        23.1118 
       11.8510        25.3433        13.0198        12.3235        23.6474 
       11.9726        26.4111        13.3573        13.0538        22.3823 
       12.0941        27.7792        13.6561        14.1230        19.2615 
       12.2157        28.9512        13.7271        15.2241        14.2300 
       12.3372        29.3509        13.8798        15.4710         7.2328 
       12.4588        29.7770        13.9366        15.8404        -1.7851 
       12.5803        27.5282        14.1487        13.3795       -12.8789 
       12.7019        20.7134        14.3476         6.3658       -26.1035 
       12.8234         7.6576        14.4182        -6.7606       -41.5138 
       12.9450       -13.2367        14.2752       -27.5119       -59.1653 
       13.0665       -44.0463        13.0344       -57.0807       -79.1122 
       13.1881       -83.5149        11.2572       -94.7721      -101.4107 
       13.3096      -127.0634         8.7774      -135.8408      -126.1143 
       13.4312      -167.9195         5.4820      -173.4015      -153.2797 
       13.5527      -200.3062         1.3423      -201.6485      -182.9604 
       13.6743      -216.9275        -3.2963      -213.6312      -215.2125 
       13.7958      -211.5032        -7.7453      -203.7579      -237.4549 
       13.9174      -186.3530       -11.4652      -174.8878      -236.6615 
       14.0389      -146.4291       -14.6977      -131.7314      -212.2188 
       14.1605       -98.3637       -17.1244       -81.2393      -163.5156 
       14.2820       -50.5627       -18.4713       -32.0914       -89.9355 
       14.4036        -9.9889       -18.6660         8.6771       -13.0979 
       14.5251        20.6760       -18.1254        38.8015        44.6380 
       14.6467        39.9646       -17.4143        57.3789        82.7547 
       14.7682        50.2761       -16.5064        66.7825       100.7426 
       14.8897        52.5115       -15.2288        67.7404        98.0881 
       15.0113        51.4424       -13.9237        65.3661        85.4361 
       15.1328        46.6640       -13.1656        59.8295        73.7936 
       15.2544        41.5500       -11.8657        53.4157        63.1892 
       15.3759        35.0241       -11.1300        46.1541        53.6530 
       15.4975        30.0735       -10.2669        40.3404        45.2142 
       15.6190        25.3693        -9.7417        35.1110        37.9028 
       15.7406        21.3223        -9.2074        30.5297        31.7479 
       15.8621        17.3003        -8.5873        25.8876        26.7792 
       15.9837        14.5713        -7.9993        22.5705        23.0264 
       16.1052        12.0053        -7.4248        19.4301        20.2388 
       16.2268        10.9487        -7.0719        18.0206        18.1572 
       16.3483        10.3483        -6.9188        17.2671        16.7987 
       16.4699        10.7542        -6.6384        17.3926        16.1800 
       16.5914        11.2878        -5.9994        17.2872        16.3180 
       16.7130        11.3600        -5.7009        17.0609        17.2296 
       16.8345        11.2887        -5.3717        16.6604        18.9316 
       16.9561        11.3099        -5.0372        16.3471        21.4410 
       17.0776         9.9787        -4.6325        14.6111        24.7746 
       17.1992         8.6672        -4.4864        13.1536        28.9493 
       17.3207         6.6301        -4.4319        11.0620        33.9819 
       17.4423         5.0974        -4.0628         9.1602        39.8894 
       17.5638         3.0432        -4.0039         7.0471        46.6885 
       17.6854         1.4729        -3.9546         5.4275        54.3962 
       17.8069         0.0315        -3.6457         3.6772        63.0294 
       17.9285        -1.1861        -2.3549         1.1688        72.6048 
       18.0500        -0.3873         2.6279        -3.0152        83.1396 
