#            R             Pt             Pn          Pt-Pn      dPndr*r/2 
#         [nm]          [bar]          [bar]          [bar]          [bar] 
        0.0609      -941.8395     -1012.1295        70.2900       395.2565 
        0.1826        15.2778       271.3361      -256.0583       437.7524 
        0.3043       452.7552       191.8827       260.8725      -386.1614 
        0.4260       217.3650        28.6410       188.7240      -106.3421 
        0.5477        95.7681         6.3085        89.4596       -19.9719 
        0.6694        47.3220         6.3945        40.9276        16.6544 
        0.7911        30.7977         7.3112        23.4865         9.5826 
        0.9128        20.9527         9.7303        11.2223         2.6872 
        1.0345        15.2081         8.4979         6.7102        -2.7183 
        1.1562        13.5277         9.5857         3.9420        -5.3199 
        1.2779         3.8629         8.6653        -4.8024        -3.8034 
        1.3997         8.9661         8.6930         0.2732        -0.1112 
        1.5214         8.9291         9.1209        -0.1918         2.6813 
        1.6431        11.4602         9.5244         1.9358         4.1889 
        1.7648         9.3893         8.4580         0.9312         4.0268 
        1.8865         7.6802         9.3133        -1.6331         1.8096 
        2.0082        10.9182         9.7093         1.2089        -1.1940 
        2.1299         6.1992         8.9501        -2.7509        -3.3148 
        2.2516        11.4445         8.9257         2.5188        -4.3367 
        2.3733         6.4194         9.4702        -3.0508        -4.0434 
        2.4950         8.6427         8.9473        -0.3045        -2.9965 
        2.6167         8.9724         8.7663         0.2062        -1.9094 
        2.7385         6.8426         7.8156        -0.9731        -0.7935 
        2.8602         6.3378         7.6835        -1.3457         0.3397 
        2.9819        10.3034         7.7674         2.5360         1.4787 
        3.1036         8.6008         7.6895         0.9113         2.6121 
        3.2253        11.9770         9.1657         2.8113         3.7284 
        3.3470        11.9037         9.1981         2.7056         4.8161 
        3.4687        12.5714         9.5913         2.9801         5.8639 
        3.5904        12.7975         9.6034         3.1941         6.8602 
        3.7121        13.5170         9.5453         3.9717         7.7936 
        3.8338        14.7909        10.6199         4.1710         8.6526 
        3.9555        18.9010        11.1674         7.7336         9.4257 
        4.0772        21.3601        11.2416        10.1185        10.1016 
        4.1990        22.4670        11.3137        11.1533        10.6686 
        4.3207        26.0844        12.1773        13.9071        11.1155 
        4.4424        27.4732        13.9078        13.5654        11.4306 
        4.5641        29.4172        14.8110        14.6062        11.6026 
        4.6858        30.9512        15.3103        15.6408        11.6200 
        4.8075        30.1999        15.6859        14.5140        11.6937 
        4.9292        30.0379        15.9788        14.0591        12.0571 
        5.0509        30.2359        16.2918        13.9441        12.7325 
        5.1726        32.4111        17.3181        15.0930        13.7422 
        5.2943        34.1780        17.9721        16.2059        15.1086 
        5.4160        37.2830        18.8988        18.3843        16.8540 
        5.5378        42.0015        19.9810        22.0205        19.0006 
        5.6595        48.4450        21.2238        27.2212        21.5709 
        5.7812        54.2631        22.3617        31.9014        24.5871 
        5.9029        59.0508        22.0502        37.0006        28.0715 
        6.0246        63.8235        22.9181        40.9054        32.0464 
        6.1463        71.6759        23.9118        47.7642        36.5343 
        6.2680        77.1700        25.8793        51.2907        41.5573 
        6.3897        81.9219        28.1261        53.7958        47.1378 
        6.5114        89.0649        30.8204        58.2445        53.2981 
        6.6331        97.9727        33.2979        64.6749        60.0605 
        6.7548       106.7634        35.7677        70.9958        67.4474 
        6.8765       110.3918        37.6544        72.7374        75.4811 
        6.9983       115.3761        39.5969        75.7792        84.1838 
        7.1200       112.9516        41.4360        71.5156        85.1187 
        7.2417        99.3677        44.1492        55.2185        69.2705 
        7.3634        74.5276        46.1986        28.3290        35.7943 
        7.4851        37.2589        47.2243        -9.9654       -16.1554 
        7.6068       -15.0380        45.3746       -60.4126       -87.4246 
        7.7285       -77.5401        42.0540      -119.5941      -154.9784 
        7.8502      -133.2219        37.9592      -171.1811      -194.2796 
        7.9719      -175.9561        32.9420      -208.8980      -203.9173 
        8.0936      -197.5373        27.1229      -224.6602      -182.4803 
        8.2153      -196.0674        21.2163      -217.2837      -146.7127 
        8.3371      -173.7348        16.1113      -189.8461      -114.4364 
        8.4588      -134.4131        12.1831      -146.5962       -85.8526 
        8.5805       -89.2356         9.6425       -98.8781       -61.1652 
        8.7022       -49.1868         7.9527       -57.1396       -40.5764 
        8.8239       -20.2445         7.2263       -27.4708       -24.2894 
        8.9456        -1.7295         6.8010        -8.5305       -12.5069 
        9.0673         7.5505         6.7017         0.8488        -5.4318 
        9.1890        10.2461         7.0252         3.2210        -3.2669 
        9.3107        10.1822         7.0384         3.1438        -3.5538 
        9.4324         9.5473         7.0724         2.4749        -3.6950 
        9.5541         9.0473         7.0660         1.9812        -3.6847 
        9.6759         9.1158         6.9716         2.1442        -3.5170 
        9.7976         8.9990         7.1265         1.8725        -3.1860 
        9.9193         9.3006         7.5318         1.7688        -2.6857 
       10.0410         9.0437         7.6447         1.3990        -2.0104 
       10.1627         8.8464         7.9284         0.9180        -1.1540 
       10.2844         9.5157         8.0401         1.4756        -0.1109 
       10.4061         9.8002         8.0294         1.7708         1.1250 
       10.5278        10.7350         8.2653         2.4697         2.5596 
       10.6495        11.1417         8.0179         3.1238         4.1986 
       10.7712        12.3052         8.0873         4.2179         6.0481 
       10.8929        13.1271         7.8561         5.2710         8.1139 
       11.0146        14.1957         7.8956         6.3001        10.4017 
       11.1364        15.0639         8.0056         7.0583        12.9177 
       11.2581        16.9233         8.4570         8.4663        15.6676 
       11.3798        17.7921         8.5167         9.2754        18.6573 
       11.5015        19.0452         8.8065        10.2387        21.8928 
       11.6232        20.5829         9.0678        11.5151        24.5295 
       11.7449        21.9831         9.4447        12.5384        25.6874 
       11.8666        22.8298         9.7178        13.1120        25.3190 
       11.9883        24.0216        10.0147        14.0069        23.3768 
       12.1100        25.4638        10.2775        15.1863        19.8131 
       12.2317        27.2228        10.3715        16.8513        14.5805 
       12.3534        28.0130        10.6491        17.3639         7.6314 
       12.4752        27.7867        11.1558        16.6309        -1.0817 
       12.5969        26.4180        11.3987        15.0194       -11.6063 
       12.7186        20.7378        11.6560         9.0818       -23.9899 
       12.8403        10.2354        11.7319        -1.4965       -38.2802 
       12.9620        -7.7718        11.2609       -19.0327       -54.5247 
       13.0837       -33.4921        10.3489       -43.8410       -72.7708 
       13.2054       -67.1149         9.2447       -76.3597       -93.0662 
       13.3271      -106.1232         7.1505      -113.2737      -115.4582 
       13.4488      -144.2440         4.1794      -148.4234      -139.9950 
       13.5705      -175.5458         0.5090      -176.0548      -166.7232 
       13.6922      -194.6748        -3.4704      -191.2043      -195.6912 
       13.8140      -197.9162        -7.4097      -190.5065      -215.8922 
       13.9357      -182.0883       -11.1378      -170.9504      -215.9311 
       14.0574      -150.7898       -14.5809      -136.2089      -195.2707 
       14.1791      -110.5968       -17.1750       -93.4219      -153.3751 
       14.3008       -66.8566       -18.6288       -48.2278       -89.7060 
       14.4225       -24.7504       -19.1319        -5.6185       -22.7614 
       14.5442         8.7279       -19.4907        28.2186        28.3188 
       14.6659        32.7989       -19.1960        51.9949        63.1085 
       14.7876        47.3810       -18.2122        65.5932        81.1806 
       14.9093        54.2053       -16.8368        71.0421        82.1080 
       15.0310        55.3948       -15.3602        70.7550        74.6429 
       15.1528        53.0080       -14.0326        67.0407        67.8348 
       15.2745        48.0214       -13.0033        61.0247        61.7028 
       15.3962        42.0672       -11.9775        54.0448        56.2659 
       15.5179        36.7871       -11.0952        47.8823        51.5431 
       15.6396        31.0035       -10.3283        41.3319        47.5533 
       15.7613        26.3622        -9.6397        36.0019        44.3157 
       15.8830        21.4589        -9.1080        30.5669        41.8491 
       16.0047        17.1553        -8.6572        25.8125        40.1726 
       16.1264        14.3916        -7.9604        22.3521        38.6224 
       16.2481        12.2107        -7.3988        19.6095        36.5141 
       16.3698        10.9603        -6.8329        17.7932        33.8358 
       16.4915        10.1695        -6.2579        16.4274        30.5756 
       16.6133        10.5782        -5.8506        16.4288        26.7215 
       16.7350        10.7370        -5.5062        16.2432        22.2616 
       16.8567        10.6199        -5.3868        16.0067        17.1841 
       16.9784        11.0955        -5.2240        16.3195        11.4770 
       17.1001        10.8138        -5.0388        15.8526         5.1284 
       17.2218        10.0813        -4.7657        14.8470         1.5675 
       17.3435         8.1775        -4.5273        12.7048         4.3208 
       17.4652         7.0404        -4.3881        11.4285        13.5222 
       17.5869         4.7777        -4.1633         8.9410        29.3060 
       17.7086         2.9419        -3.9964         6.9383        51.8063 
       17.8303         1.5310        -3.9425         5.4735        81.1562 
       17.9521        -0.0865        -2.6537         2.5672       117.4909 
       18.0738         0.2958         2.4784        -2.1825       160.9433 
