#          R        gamma        bendm 
#       [nm]     [bar*nm]   [bar*nm^2] 
        1.03    8376.9831  -17251.8946 
        1.15    6710.8213  -15432.9733 
        1.27    5496.8645  -13958.3382 
        1.40    4585.9654  -12739.3172 
        1.52    3885.1364  -11714.4776 
        1.64    3334.4999  -10840.5914 
        1.76    2894.0859  -10086.3565 
        1.88    2536.6537   -9429.0574 
        2.00    2242.1924   -8850.0278 
        2.12    1996.9801   -8336.2727 
        2.25    1790.6607   -7877.1534 
        2.37    1615.4638   -7464.2139 
        2.49    1465.4666   -7090.6483 
        2.61    1336.0912   -6750.9170 
        2.73    1223.8404   -6440.7102 
        2.85    1125.6929   -6155.7394 
        2.97    1039.4769   -5893.1092 
        3.10     963.3577   -5650.1532 
        3.22     895.8402   -5424.6073 
        3.34     835.6962   -5214.5370 
        3.46     781.9511   -5018.4355 
        3.58     733.6694   -4834.5430 
        3.70     690.1872   -4661.7775 
        3.82     650.9048   -4499.0485 
        3.94     615.3131   -4345.3997 
        4.07     582.9782   -4199.9890 
        4.19     553.5511   -4062.1828 
        4.31     526.6630   -3931.0938 
        4.43     502.0621   -3806.2503 
        4.55     479.5078   -3687.1269 
        4.67     458.7901   -3573.2527 
        4.79     439.7254   -3464.2047 
        4.92     422.1664   -3359.6858 
        5.04     405.9422   -3259.1794 
        5.16     390.9422   -3162.4612 
        5.28     377.0552   -3069.2478 
        5.40     364.1823   -2979.2811 
        5.52     352.2353   -2892.3259 
        5.64     341.1442   -2808.2354 
        5.77     330.8201   -2726.6740 
        5.89     321.2093   -2647.5314 
        6.01     312.2545   -2570.6417 
        6.13     303.9044   -2495.8517 
        6.25     296.1125   -2423.0205 
        6.37     288.8424   -2352.0755 
        6.49     282.0439   -2282.7792 
        6.62     275.6886   -2215.0791 
        6.74     269.7446   -2148.8715 
        6.86     264.1832   -2084.0602 
        6.98     258.9780   -2020.5553 
        7.10     254.1087   -1958.3244 
        7.22     249.5452   -1897.1869 
        7.34     245.2713   -1837.1218 
        7.47     241.2683   -1778.0612 
        7.59     237.5190   -1719.9414 
        7.71     234.0075   -1662.7027 
        7.83     230.7193   -1606.2893 
        7.95     227.6431   -1550.6940 
        8.07     224.7616   -1495.7760 
        8.19     222.0656   -1441.5348 
        8.31     219.5444   -1387.9268 
        8.44     217.1881   -1334.9107 
        8.56     214.9873   -1282.4476 
        8.68     212.9350   -1230.5435 
        8.80     211.0199   -1179.0781 
        8.92     209.2361   -1128.0616 
        9.04     207.5766   -1077.4630 
        9.16     206.0350   -1027.2529 
        9.29     204.6050    -977.4034 
        9.41     203.2820    -927.9288 
        9.53     202.0585    -878.7225 
        9.65     200.9305    -829.8015 
        9.77     199.8934    -781.1433 
        9.89     198.9427    -732.7263 
       10.01     198.0742    -684.5300 
       10.14     197.2847    -636.5745 
       10.26     196.5692    -588.7622 
       10.38     195.9248    -541.1148 
       10.50     195.3483    -493.6156 
       10.62     194.8366    -446.2484 
       10.74     194.3869    -398.9979 
       10.86     193.9966    -351.8882 
       10.99     193.6625    -304.8275 
       11.11     193.3825    -257.8413 
       11.23     193.1542    -210.9168 
       11.35     192.9755    -164.0416 
       11.47     192.8443    -117.2040 
       11.59     192.7587     -70.4313 
       11.71     192.7165     -23.6354 
       11.83     192.7163      23.1553 
       11.96     192.7561      69.9508 
       12.08     192.8345     116.7608 
       12.20     192.9500     163.5943 
       12.32     193.1010     210.4602 
       12.44     193.2860     257.3282 
       12.56     193.5040     304.2839 
       12.68     193.7537     351.2963 
       12.81     194.0338     398.3731 
       12.93     194.3431     445.5215 
       13.05     194.6807     492.7484 
       13.17     195.0451     540.0216 
       13.29     195.4360     587.4255 
       13.41     195.8521     634.9274 
       13.53     196.2926     682.5333 
       13.66     196.7566     730.2490 
       13.78     197.2431     778.0801 
       13.90     197.7512     825.9925 
       14.02     198.2807     874.0703 
       14.14     198.8307     922.2792 
       14.26     199.4003     970.6241 
       14.38     199.9890    1019.1096 
       14.51     200.5960    1067.7402 
       14.63     201.2204    1116.4802 
       14.75     201.8624    1165.4141 
       14.87     202.5211    1214.5059 
       14.99     203.1959    1263.7597 
       15.11     203.8863    1313.1791 
       15.23     204.5919    1362.7681 
       15.36     205.3114    1412.4891 
       15.48     206.0457    1462.4275 
       15.60     206.7937    1512.5460 
       15.72     207.5550    1562.8476 
       15.84     208.3293    1613.3357 
       15.96     209.1160    1664.0134 
       16.08     209.9142    1714.8415 
       16.20     210.7249    1765.9068 
       16.33     211.5469    1817.1704 
       16.45     212.3801    1868.6349 
       16.57     213.2240    1920.3030 
       16.69     214.0783    1972.1773 
       16.81     214.9428    2024.2603 
       16.93     215.8165    2076.5112 
       17.05     216.7004    2129.0185 
       17.18     217.5937    2181.7417 
       17.30     218.4960    2234.6828 
       17.42     219.4071    2287.8440 
       17.54     220.3267    2341.2275 
       17.66     221.2539    2394.7911 
       17.78     222.1900    2448.6250 
       17.90     223.1339    2502.6872 
       18.03     224.0855    2556.9795 
