#    jobname         ravg           r0
    job-2000       10.876       10.910
    job-2002       10.880       10.911
    job-2001       10.865       10.899
    job-2004       10.809       10.843
    job-2003       10.867       10.900
    job-2005       10.817       10.852
    job-2006       10.820       10.853
    job-2008       10.810       10.845
    job-2007       10.798       10.833
    job-2009       10.828       10.861
    job-2010       10.831       10.865
    job-2011       10.838       10.874
    job-2014       10.845       10.877
    job-2012       10.826       10.860
    job-2013       10.806       10.840
    job-2016       10.822       10.859
    job-2015       10.842       10.877
    job-2017       10.854       10.888
    job-2018       10.856       10.889
    job-2020       10.889       10.920
    job-2019       10.899       10.930
    job-2022       10.888       10.922
    job-2021       10.874       10.906
    job-2023       10.889       10.921
    job-2024       10.897       10.929
    job-2025       10.870       10.902
    job-2026       10.872       10.906
    job-2027       10.862       10.896
    job-2029       10.867       10.900
    job-2028       10.857       10.887
    job-2031       10.841       10.873
    job-2030       10.869       10.903
    job-2032       10.848       10.883
    job-2033       10.857       10.890
    job-2034       10.855       10.889
    job-2035       10.858       10.893
    job-2036       10.864       10.899
    job-2038       10.828       10.862
    job-2037       10.846       10.881
    job-2041       10.858       10.891
    job-2039       10.854       10.889
    job-2040       10.840       10.873
    job-2043       10.855       10.890
    job-2044       10.839       10.873
    job-2042       10.862       10.896
    job-2046       10.858       10.889
    job-2045       10.861       10.896
    job-2047       10.865       10.899
    job-2048       10.860       10.895
    job-2049       10.882       10.919
    job-2050       10.856       10.891
    job-2052       10.855       10.887
    job-2053       10.883       10.917
    job-2051       10.864       10.899
    job-2055       10.886       10.919
    job-2054       10.863       10.898
    job-2056       10.879       10.910
    job-2057       10.925       10.957
    job-2058       10.894       10.928
    job-2059       10.892       10.925
    job-2061       10.869       10.905
    job-2060       10.873       10.906
    job-2062       10.876       10.911
    job-2064       10.881       10.914
    job-2063       10.861       10.894
    job-2065       10.870       10.904
    job-2066       10.891       10.922
    job-2068       10.875       10.907
    job-2067       10.893       10.927
    job-2069       10.852       10.886
    job-2070       10.862       10.895
    job-2071       10.847       10.881
    job-2072       10.852       10.887
    job-2073       10.884       10.915
    job-2074       10.854       10.888
    job-2076       10.864       10.899
    job-2077       10.874       10.909
    job-2075       10.859       10.892
    job-2079       10.897       10.930
    job-2078       10.888       10.922
    job-2080       10.889       10.921
    job-2081       10.888       10.921
    job-2082       10.865       10.897
    job-2083       10.874       10.908
    job-2084       10.889       10.924
    job-2085       10.901       10.932
    job-2086       10.875       10.906
    job-2087       10.864       10.895
    job-2088       10.882       10.916
    job-2089       10.872       10.905
    job-2090       10.848       10.881
    job-2091       10.863       10.895
    job-2092       10.843       10.876
    job-2095       10.875       10.909
    job-2094       10.879       10.915
    job-2093       10.860       10.895
    job-2097       10.859       10.894
    job-2096       10.871       10.905
    job-2098       10.864       10.898
    job-2099       10.852       10.885
    job-2100       10.866       10.898
    job-2101       10.852       10.885
    job-2102       10.852       10.885
    job-2103       10.866       10.899
    job-2104       10.845       10.875
    job-2106       10.878       10.908
    job-2107       10.896       10.929
    job-2105       10.868       10.898
    job-2108       10.898       10.929
    job-2109       10.894       10.926
    job-2110       10.895       10.927
    job-2113       10.846       10.881
    job-2111       10.876       10.909
    job-2112       10.875       10.908
    job-2116       10.884       10.918
    job-2114       10.850       10.885
    job-2115       10.856       10.892
    job-2117       10.877       10.911
    job-2119       10.860       10.894
    job-2118       10.863       10.896
    job-2121       10.861       10.896
    job-2122       10.859       10.892
    job-2120       10.875       10.906
    job-2123       10.858       10.891
    job-2124       10.867       10.902
    job-2125       10.852       10.888
    job-2126       10.840       10.875
    job-2127       10.829       10.865
    job-2128       10.854       10.886
    job-2130       10.854       10.887
    job-2131       10.859       10.892
    job-2129       10.852       10.887
    job-2134       10.884       10.917
    job-2133       10.875       10.906
    job-2132       10.873       10.904
    job-2136       10.862       10.897
    job-2135       10.853       10.885
    job-2137       10.856       10.889
    job-2138       10.874       10.906
    job-2139       10.857       10.890
    job-2140       10.870       10.903
    job-2141       10.904       10.936
    job-2143       10.877       10.909
    job-2142       10.885       10.919
    job-2144       10.875       10.906
    job-2145       10.885       10.917
    job-2146       10.877       10.910
    job-2147       10.863       10.897
    job-2149       10.887       10.918
    job-2148       10.885       10.918
    job-2151       10.901       10.934
    job-2150       10.866       10.898
    job-2152       10.867       10.899
    job-2154       10.882       10.914
    job-2153       10.860       10.893
    job-2155       10.858       10.889
    job-2156       10.896       10.927
    job-2157       10.897       10.930
    job-2158       10.879       10.912
    job-2159       10.871       10.903
    job-2160       10.876       10.908
    job-2161       10.875       10.907
    job-2162       10.861       10.892
    job-2164       10.885       10.916
    job-2163       10.871       10.902
    job-2165       10.873       10.907
    job-2166       10.846       10.877
    job-2167       10.859       10.892
    job-2168       10.866       10.896
    job-2170       10.853       10.886
    job-2169       10.839       10.871
    job-2172       10.827       10.862
    job-2173       10.871       10.905
    job-2171       10.847       10.882
    job-2175       10.850       10.883
    job-2174       10.870       10.904
    job-2176       10.856       10.888
    job-2177       10.878       10.910
    job-2179       10.896       10.927
    job-2178       10.882       10.915
    job-2181       10.943       10.974
    job-2180       10.912       10.944
    job-2182       10.920       10.950
    job-2183       10.906       10.937
    job-2184       10.905       10.936
    job-2185       10.893       10.924
    job-2186       10.891       10.922
    job-2187       10.907       10.938
    job-2188       10.904       10.935
    job-2190       10.904       10.935
    job-2189       10.893       10.924
    job-2191       10.884       10.915
    job-2192       10.881       10.912
    job-2194       10.892       10.924
    job-2193       10.894       10.927
    job-2195       10.897       10.930
    job-2197       10.875       10.912
    job-2196       10.890       10.923
    job-2199       10.889       10.919
    job-2200       10.882       10.914
    job-2198       10.870       10.905
    job-2201       10.878       10.909
    job-2202       10.873       10.907
    job-2203       10.892       10.921
    job-2204       10.895       10.929
    job-2205       10.895       10.928
    job-2206       10.880       10.913
    job-2207       10.870       10.904
    job-2209       10.864       10.896
    job-2208       10.890       10.922
    job-2211       10.881       10.914
    job-2210       10.877       10.910
    job-2212       10.885       10.915
    job-2214       10.878       10.907
    job-2213       10.876       10.907
    job-2215       10.861       10.893
    job-2216       10.900       10.931
    job-2217       10.902       10.934
    job-2218       10.913       10.947
    job-2219       10.876       10.907
    job-2220       10.881       10.915
    job-2221       10.889       10.920
    job-2222       10.866       10.898
    job-2223       10.856       10.890
    job-2224       10.865       10.896
    job-2226       10.859       10.891
    job-2225       10.888       10.919
    job-2227       10.872       10.903
    job-2229       10.867       10.899
    job-2228       10.886       10.918
    job-2230       10.861       10.893
    job-2231       10.852       10.884
    job-2233       10.862       10.894
    job-2232       10.850       10.884
    job-2235       10.868       10.901
    job-2234       10.845       10.880
    job-2236       10.874       10.906
    job-2237       10.873       10.905
    job-2239       10.883       10.916
    job-2238       10.878       10.909
    job-2240       10.886       10.918
    job-2241       10.870       10.904
    job-2242       10.881       10.913
    job-2244       10.863       10.896
    job-2245       10.878       10.911
    job-2243       10.880       10.914
    job-2246       10.873       10.907
    job-2247       10.881       10.915
    job-2248       10.874       10.905
    job-2250       10.849       10.883
    job-2249       10.850       10.884
    job-2251       10.872       10.906
    job-2252       10.886       10.921
    job-2254       10.845       10.879
    job-2253       10.869       10.903
    job-2255       10.846       10.881
    job-2256       10.865       10.897
    job-2257       10.858       10.889
    job-2258       10.841       10.875
    job-2259       10.842       10.874
    job-2260       10.843       10.876
    job-2262       10.862       10.894
    job-2261       10.874       10.907
    job-2263       10.874       10.906
    job-2265       10.866       10.899
    job-2264       10.856       10.890
    job-2266       10.891       10.924
    job-2268       10.892       10.925
    job-2267       10.891       10.922
    job-2269       10.860       10.893
    job-2272       10.876       10.910
    job-2270       10.871       10.905
    job-2271       10.874       10.907
    job-2275       10.889       10.923
    job-2274       10.883       10.915
    job-2273       10.863       10.896
    job-2277       10.920       10.950
    job-2278       10.927       10.957
    job-2276       10.896       10.930
    job-2280       10.914       10.946
    job-2279       10.919       10.951
    job-2281       10.901       10.933
    job-2283       10.884       10.918
    job-2282       10.893       10.925
    job-2284       10.901       10.933
    job-2287       10.873       10.905
    job-2286       10.886       10.918
    job-2285       10.873       10.905
    job-2289       10.901       10.933
    job-2288       10.883       10.913
    job-2290       10.891       10.923
    job-2292       10.884       10.915
    job-2291       10.878       10.909
    job-2293       10.904       10.936
    job-2294       10.891       10.924
    job-2296       10.891       10.922
    job-2295       10.905       10.937
    job-2297       10.912       10.945
    job-2298       10.920       10.951
    job-2299       10.904       10.935
    job-2300       10.908       10.937
    job-2301       10.885       10.916
    job-2302       10.915       10.946
    job-2303       10.906       10.939
    job-2304       10.891       10.922
    job-2305       10.902       10.935
    job-2307       10.913       10.947
    job-2306       10.893       10.926
    job-2308       10.911       10.943
    job-2310       10.889       10.921
    job-2309       10.898       10.931
    job-2311       10.885       10.918
    job-2313       10.875       10.911
    job-2312       10.891       10.925
    job-2314       10.891       10.926
    job-2315       10.856       10.890
    job-2316       10.872       10.907
    job-2317       10.872       10.904
    job-2318       10.883       10.917
    job-2319       10.901       10.933
    job-2320       10.887       10.920
    job-2321       10.917       10.947
    job-2322       10.906       10.938
    job-2323       10.906       10.937
    job-2325       10.915       10.947
    job-2324       10.889       10.920
    job-2326       10.933       10.964
    job-2327       10.935       10.967
    job-2328       10.929       10.963
    job-2329       10.904       10.937
    job-2331       10.911       10.943
    job-2332       10.918       10.949
    job-2330       10.925       10.957
    job-2334       10.906       10.939
    job-2335       10.892       10.924
    job-2333       10.898       10.932
    job-2337       10.905       10.939
    job-2336       10.882       10.913
    job-2338       10.901       10.934
    job-2340       10.898       10.932
    job-2339       10.910       10.945
    job-2341       10.909       10.943
    job-2343       10.918       10.951
    job-2342       10.911       10.946
    job-2344       10.892       10.926
    job-2346       10.904       10.937
    job-2345       10.905       10.938
    job-2347       10.925       10.959
    job-2349       10.926       10.959
    job-2348       10.919       10.951
    job-2350       10.900       10.931
    job-2352       10.916       10.948
    job-2351       10.914       10.946
    job-2353       10.911       10.943
    job-2355       10.922       10.954
    job-2354       10.919       10.950
    job-2356       10.907       10.939
    job-2357       10.918       10.951
    job-2358       10.917       10.952
    job-2359       10.910       10.943
    job-2361       10.929       10.961
    job-2360       10.928       10.960
    job-2362       10.943       10.975
    job-2364       10.951       10.981
    job-2363       10.920       10.951
    job-2365       10.940       10.971
    job-2367       10.922       10.951
    job-2366       10.931       10.962
    job-2368       10.939       10.969
    job-2369       10.926       10.956
    job-2370       10.912       10.945
    job-2371       10.896       10.927
    job-2372       10.899       10.929
    job-2374       10.905       10.940
    job-2373       10.894       10.927
    job-2375       10.866       10.897
    job-2377       10.881       10.914
    job-2376       10.887       10.919
    job-2379       10.932       10.963
    job-2378       10.918       10.950
    job-2380       10.911       10.943
    job-2382       10.925       10.955
    job-2383       10.918       10.950
    job-2381       10.928       10.958
    job-2384       10.932       10.963
    job-2385       10.944       10.976
    job-2386       10.930       10.962
    job-2388       10.929       10.962
    job-2387       10.944       10.977
    job-2389       10.952       10.984
    job-2391       10.907       10.938
    job-2390       10.931       10.964
    job-2392       10.923       10.953
    job-2393       10.905       10.938
    job-2394       10.922       10.954
    job-2395       10.917       10.948
    job-2397       10.906       10.936
    job-2398       10.908       10.939
    job-2396       10.919       10.951
    job-2400       10.878       10.910
    job-2401       10.889       10.920
    job-2399       10.881       10.912
    job-2404       10.890       10.921
    job-2402       10.869       10.900
    job-2403       10.889       10.920
    job-2406       10.898       10.931
    job-2405       10.903       10.935
    job-2407       10.893       10.925
    job-2408       10.904       10.937
    job-2409       10.912       10.944
    job-2410       10.902       10.935
    job-2411       10.907       10.942
    job-2412       10.889       10.921
    job-2413       10.887       10.919
    job-2415       10.919       10.949
    job-2414       10.912       10.943
    job-2416       10.912       10.944
    job-2417       10.904       10.936
    job-2418       10.907       10.939
    job-2419       10.899       10.931
    job-2420       10.920       10.952
    job-2421       10.899       10.930
    job-2422       10.894       10.927
    job-2424       10.916       10.947
    job-2423       10.908       10.940
    job-2425       10.952       10.983
    job-2427       10.912       10.946
    job-2428       10.893       10.928
    job-2426       10.928       10.959
    job-2430       10.891       10.924
    job-2429       10.902       10.934
    job-2431       10.896       10.925
    job-2433       10.917       10.948
    job-2432       10.913       10.944
    job-2434       10.895       10.926
    job-2435       10.911       10.945
    job-2436       10.895       10.929
    job-2437       10.911       10.942
    job-2439       10.893       10.925
    job-2438       10.908       10.940
    job-2440       10.907       10.940
    job-2442       10.913       10.944
    job-2441       10.905       10.937
    job-2443       10.900       10.933
    job-2444       10.911       10.944
    job-2445       10.910       10.943
    job-2446       10.907       10.941
    job-2448       10.892       10.925
    job-2449       10.908       10.941
    job-2447       10.891       10.927
    job-2450       10.907       10.937
    job-2452       10.895       10.927
    job-2451       10.906       10.937
    job-2454       10.903       10.935
    job-2453       10.905       10.937
    job-2455       10.910       10.939
    job-2458       10.889       10.921
    job-2456       10.910       10.942
    job-2457       10.880       10.912
    job-2459       10.892       10.923
    job-2460       10.887       10.919
    job-2461       10.877       10.909
    job-2462       10.880       10.911
    job-2463       10.904       10.935
    job-2464       10.897       10.929
    job-2466       10.902       10.935
    job-2465       10.915       10.945
    job-2467       10.875       10.907
    job-2468       10.890       10.922
    job-2469       10.895       10.927
    job-2470       10.900       10.933
    job-2471       10.893       10.924
    job-2472       10.899       10.930
    job-2473       10.910       10.940
    job-2474       10.908       10.939
    job-2475       10.901       10.934
    job-2476       10.899       10.930
    job-2478       10.893       10.924
    job-2477       10.901       10.932
    job-2479       10.931       10.961
    job-2481       10.899       10.929
    job-2480       10.909       10.940
    job-2482       10.914       10.944
    job-2483       10.911       10.942
    job-2485       10.898       10.929
    job-2484       10.887       10.915
    job-2487       10.902       10.934
    job-2486       10.900       10.933
    job-2488       10.933       10.967
    job-2489       10.918       10.951
    job-2490       10.901       10.932
    job-2491       10.895       10.928
    job-2492       10.893       10.925
    job-2494       10.911       10.941
    job-2493       10.903       10.935
    job-2496       10.897       10.931
    job-2497       10.916       10.949
    job-2495       10.887       10.920
    job-2498       10.903       10.936
    job-2499       10.908       10.940
    job-2500       10.925       10.957
    job-2501       10.899       10.932
    job-2502       10.908       10.942
    job-2503       10.897       10.929
    job-2504       10.879       10.914
    job-2505       10.921       10.955
    job-2506       10.907       10.941
    job-2508       10.899       10.929
    job-2507       10.895       10.927
    job-2509       10.894       10.926
    job-2511       10.888       10.921
    job-2510       10.920       10.951
    job-2512       10.891       10.924
    job-2513       10.879       10.911
    job-2514       10.892       10.923
    job-2515       10.913       10.944
    job-2516       10.890       10.921
    job-2517       10.880       10.910
    job-2518       10.888       10.919
    job-2520       10.895       10.927
    job-2519       10.898       10.931
    job-2521       10.917       10.948
    job-2523       10.904       10.935
    job-2522       10.913       10.944
    job-2524       10.917       10.948
    job-2526       10.900       10.933
    job-2525       10.895       10.928
    job-2527       10.895       10.927
    job-2528       10.923       10.955
    job-2529       10.887       10.919
    job-2530       10.889       10.920
    job-2532       10.893       10.926
    job-2531       10.886       10.916
    job-2533       10.890       10.925
    job-2534       10.893       10.926
    job-2535       10.896       10.929
    job-2536       10.868       10.901
    job-2538       10.881       10.912
    job-2537       10.877       10.908
    job-2539       10.858       10.891
    job-2541       10.886       10.920
    job-2540       10.857       10.892
    job-2542       10.881       10.915
    job-2544       10.881       10.915
    job-2543       10.884       10.915
    job-2545       10.908       10.940
    job-2547       10.914       10.949
    job-2546       10.887       10.920
    job-2548       10.925       10.955
    job-2550       10.903       10.935
    job-2549       10.925       10.957
    job-2551       10.896       10.927
    job-2552       10.898       10.929
    job-2554       10.902       10.938
    job-2553       10.892       10.925
    job-2555       10.909       10.941
    job-2556       10.880       10.913
    job-2557       10.885       10.916
    job-2559       10.879       10.911
    job-2560       10.872       10.905
    job-2558       10.899       10.931
    job-2561       10.884       10.916
    job-2562       10.882       10.913
    job-2563       10.882       10.915
    job-2564       10.885       10.918
    job-2565       10.888       10.919
    job-2566       10.870       10.901
    job-2567       10.879       10.910
    job-2568       10.884       10.915
    job-2569       10.880       10.911
    job-2571       10.861       10.893
    job-2570       10.885       10.918
    job-2572       10.890       10.923
    job-2573       10.882       10.913
    job-2574       10.901       10.931
    job-2575       10.925       10.956
    job-2577       10.871       10.903
    job-2576       10.889       10.922
    job-2578       10.864       10.895
    job-2579       10.899       10.931
    job-2581       10.902       10.934
    job-2580       10.887       10.921
    job-2582       10.921       10.952
    job-2584       10.884       10.919
    job-2583       10.905       10.938
    job-2587       10.902       10.933
    job-2585       10.904       10.937
    job-2586       10.892       10.924
    job-2589       10.923       10.956
    job-2588       10.911       10.945
    job-2590       10.918       10.948
    job-2591       10.901       10.932
    job-2592       10.884       10.915
    job-2593       10.906       10.937
    job-2595       10.877       10.911
    job-2596       10.894       10.928
    job-2594       10.904       10.939
    job-2597       10.909       10.942
    job-2598       10.910       10.944
    job-2599       10.887       10.921
    job-2600       10.895       10.926
    job-2601       10.896       10.928
    job-2602       10.937       10.971
    job-2604       10.915       10.946
    job-2603       10.925       10.956
    job-2605       10.929       10.961
    job-2606       10.913       10.946
    job-2608       10.918       10.951
    job-2607       10.906       10.940
    job-2610       10.876       10.908
    job-2609       10.906       10.939
    job-2611       10.871       10.903
    job-2613       10.887       10.919
    job-2614       10.893       10.924
    job-2612       10.877       10.908
    job-2615       10.898       10.929
    job-2616       10.889       10.919
    job-2617       10.919       10.951
    job-2619       10.931       10.963
    job-2618       10.931       10.964
    job-2620       10.912       10.943
    job-2621       10.914       10.944
    job-2622       10.916       10.947
    job-2623       10.913       10.947
    job-2625       10.915       10.946
    job-2626       10.917       10.949
    job-2624       10.934       10.967
    job-2628       10.885       10.917
    job-2627       10.905       10.938
    job-2629       10.893       10.924
    job-2631       10.869       10.902
    job-2632       10.889       10.922
    job-2630       10.871       10.903
    job-2633       10.941       10.975
    job-2634       10.924       10.958
    job-2635       10.912       10.946
    job-2637       10.914       10.947
    job-2636       10.934       10.966
    job-2638       10.911       10.942
    job-2639       10.920       10.953
    job-2640       10.911       10.943
    job-2641       10.884       10.915
    job-2643       10.902       10.932
    job-2642       10.893       10.924
    job-2644       10.895       10.928
    job-2645       10.907       10.939
    job-2646       10.891       10.922
    job-2647       10.911       10.942
    job-2648       10.893       10.925
    job-2650       10.903       10.935
    job-2649       10.896       10.926
    job-2651       10.904       10.937
    job-2652       10.906       10.939
    job-2653       10.918       10.948
    job-2654       10.919       10.951
    job-2655       10.898       10.931
    job-2656       10.906       10.938
    job-2657       10.910       10.943
    job-2659       10.907       10.940
    job-2658       10.880       10.911
    job-2660       10.898       10.929
    job-2661       10.893       10.924
    job-2662       10.878       10.910
    job-2664       10.871       10.905
    job-2663       10.889       10.922
    job-2665       10.885       10.915
    job-2666       10.890       10.922
    job-2667       10.911       10.941
    job-2668       10.887       10.918
    job-2669       10.887       10.918
    job-2670       10.901       10.931
    job-2671       10.913       10.945
    job-2672       10.926       10.960
    job-2673       10.931       10.963
    job-2674       10.925       10.959
    job-2676       10.903       10.937
    job-2675       10.904       10.936
    job-2677       10.893       10.928
    job-2678       10.881       10.914
    job-2680       10.913       10.946
    job-2679       10.873       10.906
    job-2682       10.898       10.933
    job-2681       10.901       10.934
    job-2683       10.920       10.953
    job-2685       10.883       10.914
    job-2684       10.882       10.915
    job-2686       10.900       10.931
    job-2687       10.910       10.942
    job-2688       10.899       10.932
    job-2689       10.887       10.921
    job-2690       10.894       10.927
    job-2691       10.916       10.948
    job-2692       10.908       10.939
    job-2693       10.905       10.934
    job-2694       10.872       10.904
    job-2695       10.882       10.911
    job-2696       10.888       10.919
    job-2698       10.881       10.913
    job-2697       10.899       10.931
    job-2700       10.865       10.898
    job-2701       10.891       10.924
    job-2699       10.884       10.917
    job-2702       10.879       10.909
    job-2703       10.892       10.924
    job-2704       10.900       10.930
    job-2705       10.879       10.910
    job-2706       10.883       10.913
    job-2707       10.884       10.912
    job-2709       10.890       10.921
    job-2708       10.893       10.925
    job-2710       10.894       10.926
    job-2712       10.891       10.923
    job-2711       10.872       10.906
    job-2713       10.872       10.902
    job-2714       10.887       10.919
    job-2716       10.887       10.917
    job-2715       10.907       10.939
    job-2717       10.887       10.918
    job-2718       10.901       10.933
    job-2719       10.886       10.917
    job-2720       10.881       10.913
    job-2721       10.885       10.917
    job-2722       10.890       10.921
    job-2723       10.863       10.893
    job-2724       10.878       10.910
    job-2725       10.872       10.904
    job-2726       10.880       10.911
    job-2727       10.876       10.907
    job-2728       10.861       10.892
    job-2730       10.897       10.928
    job-2729       10.875       10.907
    job-2731       10.880       10.911
    job-2732       10.860       10.892
    job-2733       10.881       10.912
    job-2734       10.885       10.916
    job-2735       10.861       10.894
    job-2737       10.878       10.908
    job-2736       10.887       10.920
    job-2739       10.880       10.911
    job-2740       10.881       10.913
    job-2738       10.879       10.911
    job-2742       10.880       10.912
    job-2741       10.886       10.919
    job-2743       10.878       10.910
    job-2745       10.893       10.926
    job-2744       10.891       10.924
    job-2746       10.897       10.929
    job-2748       10.892       10.922
    job-2747       10.925       10.956
    job-2749       10.913       10.942
    job-2751       10.882       10.914
    job-2750       10.902       10.934
    job-2752       10.875       10.908
    job-2754       10.882       10.912
    job-2753       10.892       10.923
    job-2755       10.882       10.915
    job-2756       10.881       10.914
    job-2757       10.873       10.903
    job-2758       10.896       10.928
    job-2759       10.883       10.917
    job-2761       10.903       10.937
    job-2760       10.853       10.886
    job-2762       10.876       10.907
    job-2763       10.860       10.892
    job-2764       10.862       10.893
    job-2766       10.864       10.896
    job-2765       10.868       10.902
    job-2767       10.854       10.884
    job-2769       10.871       10.904
    job-2768       10.853       10.885
    job-2770       10.867       10.900
    job-2772       10.844       10.876
    job-2771       10.835       10.869
    job-2773       10.859       10.890
    job-2774       10.839       10.871
    job-2775       10.845       10.878
    job-2776       10.867       10.900
    job-2778       10.857       10.888
    job-2777       10.866       10.897
    job-2779       10.869       10.901
    job-2780       10.880       10.913
    job-2781       10.862       10.893
    job-2782       10.880       10.910
    job-2783       10.884       10.917
    job-2784       10.880       10.912
    job-2785       10.858       10.891
    job-2786       10.864       10.900
    job-2787       10.860       10.893
    job-2788       10.884       10.915
    job-2790       10.868       10.902
    job-2791       10.884       10.916
    job-2789       10.869       10.902
    job-2792       10.889       10.921
    job-2793       10.892       10.924
    job-2794       10.889       10.922
    job-2795       10.865       10.896
    job-2796       10.853       10.886
    job-2797       10.863       10.896
    job-2799       10.878       10.910
    job-2798       10.865       10.898
    job-2800       10.877       10.910
    job-2801       10.896       10.928
    job-2803       10.886       10.920
    job-2802       10.908       10.940
    job-2804       10.886       10.918
    job-2805       10.868       10.900
    job-2806       10.890       10.923
    job-2807       10.892       10.924
    job-2808       10.903       10.935
    job-2809       10.880       10.913
    job-2811       10.884       10.916
    job-2810       10.887       10.920
    job-2812       10.883       10.914
    job-2815       10.900       10.934
    job-2813       10.892       10.925
    job-2814       10.884       10.917
    job-2816       10.865       10.898
    job-2817       10.890       10.922
    job-2818       10.881       10.914
    job-2819       10.866       10.899
    job-2821       10.886       10.918
    job-2820       10.894       10.924
    job-2822       10.873       10.903
    job-2823       10.881       10.916
    job-2824       10.892       10.925
    job-2825       10.865       10.898
    job-2827       10.877       10.908
    job-2826       10.891       10.924
    job-2829       10.881       10.913
    job-2828       10.873       10.905
    job-2830       10.872       10.905
    job-2831       10.864       10.895
    job-2833       10.873       10.905
    job-2832       10.873       10.906
    job-2835       10.893       10.926
    job-2834       10.860       10.893
    job-2836       10.893       10.925
    job-2838       10.876       10.907
    job-2837       10.886       10.918
    job-2839       10.897       10.928
    job-2841       10.888       10.922
    job-2842       10.906       10.938
    job-2840       10.892       10.925
    job-2843       10.906       10.942
    job-2844       10.902       10.935
    job-2845       10.907       10.940
    job-2846       10.902       10.934
    job-2847       10.888       10.920
    job-2848       10.884       10.915
    job-2851       10.930       10.962
    job-2849       10.904       10.935
    job-2850       10.900       10.934
    job-2854       10.895       10.928
    job-2853       10.899       10.931
    job-2852       10.912       10.944
    job-2857       10.901       10.933
    job-2856       10.872       10.905
    job-2855       10.904       10.936
    job-2858       10.914       10.945
    job-2859       10.862       10.895
    job-2860       10.878       10.910
    job-2861       10.857       10.889
    job-2862       10.856       10.888
    job-2863       10.855       10.886
    job-2865       10.864       10.898
    job-2864       10.857       10.890
    job-2866       10.860       10.892
    job-2868       10.872       10.903
    job-2869       10.861       10.894
    job-2867       10.873       10.905
    job-2870       10.840       10.873
    job-2871       10.881       10.913
    job-2872       10.878       10.908
    job-2874       10.878       10.909
    job-2873       10.868       10.901
    job-2875       10.891       10.924
    job-2876       10.848       10.880
    job-2877       10.840       10.874
    job-2878       10.854       10.887
    job-2880       10.844       10.876
    job-2879       10.856       10.890
    job-2881       10.863       10.895
    job-2882       10.863       10.895
    job-2883       10.868       10.900
    job-2884       10.873       10.905
    job-2886       10.877       10.910
    job-2887       10.894       10.929
    job-2885       10.873       10.906
    job-2889       10.903       10.935
    job-2888       10.919       10.951
    job-2890       10.890       10.923
    job-2892       10.879       10.912
    job-2891       10.898       10.932
    job-2893       10.890       10.923
    job-2894       10.898       10.930
    job-2895       10.902       10.934
    job-2896       10.911       10.941
    job-2897       10.921       10.952
    job-2898       10.899       10.931
    job-2899       10.895       10.927
    job-2900       10.895       10.927
    job-2901       10.904       10.936
    job-2902       10.890       10.920
    job-2903       10.904       10.936
    job-2905       10.911       10.943
    job-2904       10.871       10.905
    job-2907       10.888       10.920
    job-2906       10.906       10.937
    job-2908       10.893       10.925
    job-2909       10.885       10.916
    job-2910       10.902       10.933
    job-2911       10.911       10.944
    job-2913       10.893       10.927
    job-2912       10.919       10.951
    job-2914       10.897       10.928
    job-2916       10.887       10.918
    job-2915       10.895       10.927
    job-2917       10.877       10.909
    job-2918       10.877       10.908
    job-2919       10.887       10.918
    job-2920       10.888       10.921
    job-2921       10.885       10.915
    job-2922       10.924       10.955
    job-2923       10.912       10.945
    job-2925       10.906       10.938
    job-2924       10.896       10.927
    job-2926       10.907       10.940
    job-2927       10.890       10.923
    job-2929       10.891       10.923
    job-2928       10.888       10.919
    job-2930       10.883       10.914
    job-2931       10.906       10.937
    job-2932       10.913       10.944
    job-2934       10.915       10.947
    job-2933       10.911       10.943
    job-2935       10.911       10.942
    job-2936       10.917       10.946
    job-2938       10.904       10.934
    job-2937       10.902       10.936
    job-2939       10.910       10.940
    job-2940       10.910       10.940
    job-2941       10.903       10.935
    job-2942       10.898       10.929
    job-2943       10.885       10.917
    job-2944       10.879       10.911
    job-2945       10.904       10.935
    job-2946       10.888       10.921
    job-2947       10.857       10.891
    job-2949       10.852       10.886
    job-2948       10.871       10.905
    job-2950       10.873       10.905
    job-2952       10.878       10.909
    job-2951       10.886       10.918
    job-2953       10.859       10.890
    job-2955       10.895       10.924
    job-2954       10.877       10.908
    job-2956       10.881       10.913
    job-2958       10.881       10.913
    job-2957       10.897       10.926
    job-2959       10.870       10.901
    job-2961       10.889       10.921
    job-2960       10.871       10.902
    job-2962       10.870       10.903
    job-2963       10.867       10.901
    job-2964       10.860       10.893
    job-2965       10.882       10.915
    job-2967       10.865       10.897
    job-2968       10.868       10.902
    job-2966       10.865       10.896
    job-2969       10.864       10.899
    job-2970       10.887       10.919
    job-2971       10.869       10.905
    job-2973       10.901       10.938
    job-2972       10.864       10.900
    job-2974       10.903       10.937
    job-2975       10.886       10.918
    job-2977       10.896       10.928
    job-2976       10.892       10.923
    job-2978       10.896       10.928
    job-2979       10.892       10.924
    job-2980       10.887       10.918
    job-2981       10.886       10.921
    job-2983       10.892       10.923
    job-2982       10.887       10.919
    job-2984       10.899       10.931
    job-2985       10.891       10.924
    job-2986       10.886       10.917
    job-2988       10.892       10.923
    job-2987       10.878       10.909
    job-2989       10.885       10.917
    job-2991       10.877       10.909
    job-2990       10.891       10.924
    job-2992       10.871       10.901
    job-2994       10.882       10.914
    job-2993       10.866       10.898
    job-2995       10.874       10.905
    job-2996       10.885       10.917
    job-2997       10.891       10.925
    job-2998       10.869       10.901
    job-3000       10.884       10.915
    job-2999       10.872       10.906
    job-3001       10.882       10.912
    job-3002       10.862       10.896
    job-3003       10.860       10.892
    job-3004       10.851       10.885
    job-3007       10.882       10.914
    job-3005       10.851       10.887
    job-3006       10.866       10.899
    job-3009       10.871       10.904
    job-3010       10.884       10.916
    job-3008       10.885       10.917
    job-3011       10.878       10.912
    job-3012       10.864       10.898
    job-3013       10.862       10.895
    job-3014       10.886       10.919
    job-3015       10.889       10.921
    job-3016       10.891       10.924
    job-3017       10.870       10.901
    job-3018       10.881       10.910
    job-3019       10.890       10.921
    job-3020       10.899       10.931
    job-3022       10.888       10.920
    job-3021       10.913       10.943
    job-3023       10.883       10.915
    job-3024       10.880       10.911
    job-3025       10.877       10.909
    job-3027       10.870       10.902
    job-3026       10.877       10.910
    job-3028       10.877       10.908
    job-3030       10.854       10.886
    job-3029       10.862       10.894
    job-3031       10.851       10.884
    job-3032       10.888       10.918
    job-3034       10.881       10.913
    job-3033       10.864       10.897
    job-3035       10.880       10.910
    job-3037       10.884       10.915
    job-3036       10.860       10.892
    job-3038       10.881       10.913
    job-3039       10.870       10.901
    job-3040       10.844       10.877
    job-3041       10.862       10.892
    job-3042       10.870       10.904
    job-3043       10.878       10.909
    job-3045       10.891       10.923
    job-3044       10.871       10.904
    job-3046       10.897       10.929
    job-3047       10.917       10.948
    job-3049       10.935       10.965
    job-3048       10.908       10.937
    job-3051       10.898       10.931
    job-3052       10.904       10.934
    job-3050       10.905       10.938
    job-3053       10.883       10.915
    job-3054       10.869       10.900
    job-3055       10.895       10.926
    job-3057       10.881       10.914
    job-3056       10.882       10.913
    job-3058       10.869       10.902
    job-3059       10.879       10.912
    job-3060       10.902       10.935
    job-3061       10.898       10.933
    job-3062       10.888       10.920
    job-3063       10.894       10.930
    job-3064       10.890       10.924
    job-3066       10.865       10.899
    job-3065       10.911       10.947
    job-3067       10.890       10.921
    job-3069       10.914       10.945
    job-3068       10.899       10.931
    job-3070       10.905       10.938
    job-3072       10.877       10.909
    job-3071       10.900       10.931
    job-3073       10.907       10.940
    job-3074       10.895       10.927
    job-3075       10.891       10.924
    job-3076       10.917       10.953
    job-3077       10.916       10.948
    job-3078       10.894       10.930
    job-3079       10.888       10.922
    job-3080       10.861       10.897
    job-3081       10.871       10.905
    job-3082       10.884       10.917
    job-3083       10.887       10.918
    job-3085       10.886       10.920
    job-3084       10.904       10.936
    job-3086       10.881       10.912
    job-3087       10.882       10.914
    job-3088       10.888       10.921
    job-3089       10.881       10.914
    job-3090       10.877       10.910
    job-3091       10.866       10.899
    job-3092       10.869       10.905
    job-3093       10.867       10.901
    job-3094       10.889       10.920
    job-3095       10.877       10.910
    job-3097       10.873       10.906
    job-3096       10.889       10.921
    job-3098       10.849       10.883
    job-3099       10.862       10.894
    job-3100       10.879       10.913
    job-3102       10.880       10.913
    job-3103       10.887       10.921
    job-3101       10.869       10.903
    job-3104       10.868       10.901
    job-3105       10.860       10.894
    job-3106       10.852       10.884
    job-3107       10.835       10.867
    job-3109       10.867       10.899
    job-3108       10.860       10.892
    job-3110       10.855       10.888
    job-3112       10.854       10.886
    job-3111       10.861       10.894
    job-3113       10.864       10.897
    job-3114       10.841       10.876
    job-3115       10.854       10.888
    job-3116       10.854       10.887
    job-3117       10.845       10.878
    job-3118       10.844       10.878
    job-3120       10.865       10.898
    job-3119       10.874       10.906
    job-3121       10.871       10.904
    job-3122       10.862       10.896
    job-3123       10.877       10.910
    job-3124       10.880       10.913
    job-3125       10.853       10.888
    job-3127       10.859       10.889
    job-3126       10.833       10.867
    job-3128       10.863       10.893
    job-3130       10.861       10.893
    job-3129       10.856       10.887
    job-3133       10.861       10.896
    job-3132       10.864       10.897
    job-3131       10.864       10.898
    job-3134       10.872       10.906
    job-3135       10.857       10.889
    job-3136       10.872       10.904
    job-3138       10.844       10.874
    job-3139       10.865       10.897
    job-3137       10.845       10.877
    job-3140       10.860       10.892
    job-3142       10.826       10.859
    job-3141       10.858       10.892
    job-3144       10.853       10.886
    job-3143       10.836       10.871
    job-3145       10.874       10.909
    job-3146       10.874       10.909
    job-3147       10.850       10.882
    job-3148       10.842       10.877
    job-3149       10.881       10.913
    job-3150       10.856       10.888
    job-3151       10.847       10.879
    job-3153       10.851       10.882
    job-3152       10.856       10.887
    job-3154       10.839       10.870
    job-3155       10.843       10.875
    job-3157       10.840       10.872
    job-3156       10.838       10.871
    job-3158       10.871       10.904
    job-3159       10.829       10.861
    job-3160       10.845       10.878
    job-3161       10.859       10.894
    job-3163       10.843       10.877
    job-3162       10.852       10.886
    job-3165       10.826       10.860
    job-3164       10.836       10.869
    job-3166       10.826       10.860
    job-3168       10.836       10.874
    job-3167       10.843       10.876
    job-3169       10.818       10.852
    job-3170       10.848       10.881
    job-3172       10.858       10.893
    job-3171       10.871       10.903
    job-3173       10.880       10.914
    job-3175       10.860       10.892
    job-3174       10.848       10.882
    job-3177       10.847       10.882
    job-3178       10.849       10.883
    job-3176       10.877       10.909
    job-3179       10.835       10.867
    job-3180       10.844       10.877
    job-3181       10.860       10.893
    job-3182       10.878       10.911
    job-3183       10.864       10.898
    job-3184       10.869       10.902
    job-3185       10.878       10.911
    job-3186       10.884       10.914
    job-3187       10.877       10.908
    job-3188       10.867       10.898
    job-3189       10.890       10.920
    job-3190       10.885       10.916
    job-3192       10.853       10.886
    job-3191       10.856       10.888
    job-3193       10.875       10.906
    job-3194       10.888       10.919
    job-3195       10.880       10.914
    job-3196       10.878       10.910
    job-3197       10.886       10.918
    job-3198       10.868       10.899
    job-3199       10.846       10.876
    job-3200       10.830       10.864
    job-3201       10.859       10.894
    job-3202       10.866       10.901
    job-3203       10.845       10.880
    job-3204       10.878       10.912
    job-3205       10.850       10.884
    job-3206       10.853       10.884
    job-3207       10.870       10.902
    job-3208       10.859       10.893
    job-3210       10.883       10.918
    job-3211       10.869       10.900
    job-3209       10.870       10.903
    job-3213       10.872       10.903
    job-3212       10.865       10.897
    job-3214       10.883       10.913
    job-3216       10.886       10.917
    job-3215       10.863       10.898
    job-3217       10.884       10.917
    job-3219       10.884       10.918
    job-3220       10.889       10.924
    job-3218       10.883       10.914
    job-3221       10.896       10.931
    job-3222       10.865       10.898
    job-3223       10.871       10.905
    job-3225       10.876       10.909
    job-3226       10.871       10.903
    job-3224       10.878       10.911
    job-3227       10.863       10.895
    job-3228       10.877       10.910
    job-3229       10.873       10.906
    job-3230       10.903       10.935
    job-3231       10.903       10.934
    job-3232       10.904       10.933
    job-3233       10.884       10.915
    job-3234       10.870       10.900
    job-3235       10.896       10.928
    job-3236       10.880       10.911
    job-3238       10.870       10.903
    job-3237       10.885       10.917
    job-3239       10.876       10.908
    job-3240       10.862       10.896
    job-3241       10.886       10.920
    job-3243       10.870       10.902
    job-3242       10.863       10.896
    job-3244       10.876       10.909
    job-3246       10.860       10.893
    job-3245       10.860       10.893
    job-3247       10.859       10.893
    job-3248       10.861       10.895
    job-3249       10.862       10.896
    job-3250       10.832       10.866
    job-3252       10.858       10.889
    job-3253       10.835       10.870
    job-3251       10.865       10.896
    job-3254       10.843       10.876
    job-3255       10.855       10.890
    job-3256       10.846       10.879
    job-3258       10.855       10.889
    job-3259       10.840       10.876
    job-3257       10.855       10.888
    job-3260       10.853       10.888
    job-3261       10.866       10.902
    job-3262       10.831       10.869
    job-3264       10.872       10.905
    job-3263       10.858       10.893
    job-3265       10.856       10.890
    job-3266       10.864       10.895
    job-3268       10.871       10.903
    job-3267       10.889       10.921
    job-3270       10.869       10.902
    job-3271       10.873       10.906
    job-3269       10.902       10.930
    job-3273       10.856       10.887
    job-3272       10.865       10.899
    job-3274       10.871       10.903
    job-3276       10.889       10.921
    job-3275       10.877       10.910
    job-3277       10.887       10.919
    job-3278       10.875       10.906
    job-3279       10.881       10.913
    job-3280       10.893       10.927
    job-3281       10.892       10.923
    job-3282       10.881       10.913
    job-3283       10.881       10.913
    job-3284       10.873       10.906
    job-3286       10.871       10.905
    job-3285       10.871       10.904
    job-3288       10.880       10.913
    job-3287       10.869       10.903
    job-3289       10.890       10.922
    job-3290       10.896       10.926
    job-3291       10.914       10.945
    job-3292       10.909       10.940
    job-3293       10.910       10.941
    job-3294       10.917       10.948
    job-3295       10.930       10.961
    job-3297       10.901       10.935
    job-3296       10.915       10.947
    job-3298       10.909       10.940
    job-3299       10.928       10.962
    job-3300       10.919       10.952
    job-3301       10.898       10.931
    job-3302       10.930       10.961
    job-3304       10.924       10.957
    job-3303       10.913       10.945
    job-3305       10.943       10.974
    job-3306       10.918       10.950
    job-3307       10.907       10.940
    job-3309       10.908       10.941
    job-3308       10.911       10.942
    job-3310       10.904       10.937
    job-3311       10.875       10.907
    job-3312       10.920       10.952
    job-3313       10.903       10.935
    job-3314       10.912       10.943
    job-3315       10.917       10.948
    job-3316       10.910       10.942
    job-3318       10.915       10.947
    job-3317       10.895       10.927
    job-3319       10.898       10.929
    job-3321       10.914       10.947
    job-3320       10.880       10.911
    job-3322       10.913       10.943
    job-3324       10.891       10.922
    job-3325       10.881       10.913
    job-3323       10.907       10.939
    job-3326       10.895       10.925
    job-3327       10.897       10.926
    job-3328       10.891       10.923
    job-3329       10.896       10.929
    job-3330       10.904       10.937
    job-3331       10.875       10.908
    job-3332       10.876       10.908
    job-3333       10.870       10.904
    job-3334       10.878       10.910
    job-3335       10.902       10.931
    job-3337       10.865       10.897
    job-3336       10.877       10.908
    job-3339       10.877       10.907
    job-3340       10.874       10.907
    job-3338       10.866       10.899
    job-3341       10.881       10.912
    job-3342       10.915       10.946
    job-3343       10.892       10.922
    job-3344       10.891       10.923
    job-3345       10.905       10.936
    job-3346       10.914       10.948
    job-3348       10.901       10.934
    job-3347       10.908       10.940
    job-3349       10.879       10.911
    job-3351       10.881       10.916
    job-3350       10.890       10.923
    job-3352       10.883       10.918
    job-3353       10.869       10.900
    job-3355       10.903       10.936
    job-3354       10.899       10.930
    job-3357       10.903       10.934
    job-3356       10.914       10.947
    job-3358       10.920       10.951
    job-3359       10.932       10.963
    job-3360       10.925       10.957
    job-3361       10.930       10.963
    job-3362       10.915       10.947
    job-3363       10.900       10.932
    job-3364       10.919       10.950
    job-3365       10.905       10.937
    job-3366       10.910       10.942
    job-3367       10.902       10.934
    job-3369       10.892       10.925
    job-3368       10.887       10.920
    job-3370       10.903       10.936
    job-3371       10.925       10.956
    job-3372       10.918       10.950
    job-3373       10.904       10.936
    job-3374       10.899       10.930
    job-3375       10.897       10.927
    job-3376       10.911       10.941
    job-3377       10.896       10.926
    job-3378       10.896       10.925
    job-3379       10.891       10.923
    job-3380       10.896       10.927
    job-3382       10.913       10.944
    job-3381       10.902       10.934
    job-3383       10.919       10.951
    job-3384       10.924       10.954
    job-3385       10.925       10.955
    job-3386       10.921       10.952
    job-3387       10.919       10.951
    job-3388       10.906       10.938
    job-3390       10.872       10.902
    job-3391       10.892       10.926
    job-3389       10.868       10.900
    job-3393       10.935       10.966
    job-3394       10.935       10.967
    job-3392       10.916       10.950
    job-3396       10.917       10.950
    job-3395       10.941       10.971
    job-3397       10.924       10.957
    job-3398       10.912       10.943
    job-3399       10.909       10.940
    job-3400       10.901       10.934
    job-3401       10.909       10.942
    job-3402       10.904       10.937
    job-3403       10.908       10.939
    job-3404       10.877       10.910
    job-3406       10.884       10.917
    job-3405       10.892       10.928
    job-3408       10.917       10.950
    job-3407       10.889       10.924
    job-3409       10.920       10.953
    job-3410       10.902       10.934
    job-3411       10.924       10.958
    job-3412       10.928       10.960
    job-3414       10.908       10.938
    job-3415       10.893       10.923
    job-3413       10.926       10.959
    job-3417       10.879       10.913
    job-3416       10.881       10.914
    job-3418       10.897       10.928
    job-3419       10.920       10.952
    job-3420       10.905       10.936
    job-3421       10.918       10.950
    job-3422       10.901       10.934
    job-3423       10.896       10.928
    job-3424       10.923       10.957
    job-3426       10.893       10.924
    job-3427       10.881       10.913
    job-3425       10.897       10.930
    job-3429       10.904       10.937
    job-3428       10.882       10.915
    job-3430       10.917       10.949
    job-3432       10.939       10.972
    job-3433       10.905       10.940
    job-3431       10.923       10.956
    job-3435       10.891       10.924
    job-3434       10.891       10.925
    job-3436       10.887       10.920
    job-3437       10.898       10.931
    job-3438       10.890       10.922
    job-3439       10.873       10.903
    job-3440       10.855       10.887
    job-3441       10.873       10.903
    job-3442       10.880       10.910
    job-3443       10.849       10.883
    job-3445       10.843       10.877
    job-3444       10.843       10.878
    job-3446       10.862       10.894
    job-3447       10.868       10.904
    job-3448       10.892       10.925
    job-3450       10.909       10.939
    job-3449       10.892       10.926
    job-3451       10.930       10.962
    job-3453       10.924       10.955
    job-3452       10.929       10.960
    job-3454       10.904       10.934
    job-3455       10.925       10.956
    job-3456       10.906       10.939
    job-3457       10.900       10.930
    job-3458       10.929       10.959
    job-3459       10.926       10.959
    job-3460       10.925       10.958
    job-3461       10.917       10.947
    job-3462       10.897       10.930
    job-3463       10.919       10.952
    job-3464       10.919       10.951
    job-3465       10.903       10.937
    job-3466       10.901       10.935
    job-3468       10.897       10.931
    job-3469       10.889       10.923
    job-3467       10.908       10.940
    job-3472       10.906       10.940
    job-3470       10.886       10.919
    job-3471       10.893       10.925
    job-3473       10.907       10.939
    job-3474       10.897       10.931
    job-3475       10.887       10.923
    job-3476       10.884       10.919
    job-3477       10.866       10.900
    job-3478       10.867       10.900
    job-3480       10.878       10.911
    job-3481       10.879       10.911
    job-3479       10.873       10.906
    job-3482       10.876       10.908
    job-3483       10.871       10.902
    job-3484       10.867       10.897
    job-3485       10.874       10.906
    job-3486       10.865       10.896
    job-3487       10.886       10.919
    job-3489       10.899       10.933
    job-3488       10.914       10.948
    job-3490       10.885       10.917
    job-3492       10.868       10.900
    job-3493       10.887       10.919
    job-3491       10.879       10.913
    job-3495       10.869       10.902
    job-3494       10.876       10.907
    job-3496       10.883       10.916
    job-3497       10.855       10.890
    job-3499       10.888       10.920
    job-3498       10.902       10.935
