#          Z       System          PBD          PEO          PLY           PW     UPPLAYER     LOWLAYER         PRIN         PRIP         CLIO 
#       [nm]     [kg/m^3]     [kg/m^3]     [kg/m^3]     [kg/m^3]     [kg/m^3]     [kg/m^3]     [kg/m^3]     [kg/m^3]     [kg/m^3]     [kg/m^3] 
     -9.2993    1083.3604       0.0000       0.0000       0.0000    1043.4896       0.0000       0.0000       0.0000      32.3302       7.5407 
     -9.1115    1084.8309       0.0000       0.0000       0.0000    1044.3661       0.0000       0.0000       0.0000      32.8176       7.6474 
     -8.9236    1083.8188       0.0000       0.0000       0.0000    1043.3413       0.0000       0.0000       0.0000      32.8492       7.6283 
     -8.7357    1084.2594       0.0000       0.0000       0.0000    1043.5743       0.0000       0.0000       0.0000      33.0809       7.6042 
     -8.5479    1084.0832       0.0000       0.0000       0.0000    1043.3166       0.0000       0.0000       0.0000      33.1027       7.6638 
     -8.3600    1084.4261       0.0000       0.0006       0.0006    1043.3396       0.0000       0.0006       0.0000      33.4283       7.6576 
     -8.1721    1083.8837       0.0000       0.0009       0.0009    1042.7110       0.0000       0.0009       0.0000      33.5776       7.5943 
     -7.9843    1084.5811       0.0000       0.0040       0.0040    1043.2116       0.0000       0.0040       0.0000      33.7300       7.6356 
     -7.7964    1084.5871       0.0000       0.0131       0.0131    1042.6535       0.0000       0.0131       0.0000      34.2731       7.6476 
     -7.6086    1085.0364       0.0000       0.0506       0.0506    1043.1151       0.0000       0.0506       0.0000      34.4218       7.4490 
     -7.4207    1084.2651       0.0000       0.1819       0.1819    1042.0829       0.0000       0.1819       0.0000      34.4638       7.5366 
     -7.2328    1085.3684       0.0000       0.5719       0.5719    1043.1693       0.0000       0.5719       0.0000      34.1524       7.4747 
     -7.0450    1084.4501       0.0000       1.5638       1.5638    1042.2130       0.0000       1.5638       0.0000      33.1628       7.5107 
     -6.8571    1085.3082       0.0000       3.7726       3.7726    1041.7790       0.0000       3.7726       0.0000      31.8491       7.9077 
     -6.6692    1085.2938       0.0000       8.4019       8.4019    1038.8532       0.0000       8.4019       0.0000      29.4186       8.6200 
     -6.4814    1085.7534       0.0000      17.0105      17.0105    1032.4013       0.0000      17.0105       0.0000      26.2828      10.0587 
     -6.2935    1086.5017       0.0000      30.7707      30.7707    1021.0746       0.0000      30.7707       0.0000      22.5488      12.1076 
     -6.1056    1086.1138       0.0000      51.0271      51.0271    1002.3852       0.0000      51.0271       0.0000      18.6248      14.0768 
     -5.9178    1086.1399       0.0000      76.7127      76.7127     979.1763       0.0000      76.7127       0.0000      14.8342      15.4166 
     -5.7299    1084.9883       0.0000     107.3699     107.3699     949.7921       0.0000     107.3699       0.0000      11.4998      16.3266 
     -5.5420    1082.1634       0.0000     140.5468     140.5468     917.2274       0.0000     140.5468       0.0000       8.6950      15.6942 
     -5.3542    1080.9877       0.0000     175.1477     175.1477     884.3119       0.0000     175.1477       0.0000       6.6559      14.8721 
     -5.1663    1078.7072       0.0005     208.6875     208.6879     851.8795       0.0000     208.6879       0.0000       5.0033      13.1364 
     -4.9784    1077.6858       0.0023     240.9879     240.9901     821.1846       0.0000     240.9901       0.0000       3.6700      11.8411 
     -4.7906    1077.1391       0.0100     270.6512     270.6612     793.0464       0.0000     270.6612       0.0000       2.8015      10.6301 
     -4.6027    1077.7132       0.0510     296.7528     296.8038     768.7896       0.0000     296.8038       0.0000       2.4470       9.6729 
     -4.4148    1077.4498       0.2379     321.1609     321.3988     744.2074       0.0000     321.3988       0.0005       2.9695       8.8737 
     -4.2270    1078.7761       0.8187     343.5864     344.4051     721.0664       0.0000     344.4051       0.0060       5.1744       8.1242 
     -4.0391    1079.7536       2.5302     366.2305     368.7607     693.2484       0.0009     368.7598       0.0215      10.6111       7.1119 
     -3.8512    1079.9811       7.1473     391.6391     398.7865     654.4652       0.0059     398.7806       0.1036      20.8827       5.7433 
     -3.6634    1079.4740      18.6377     423.4588     442.0965     596.7889       0.0469     442.0497       0.4005      36.1022       4.0858 
     -3.4755    1076.9430      44.7691     457.5759     502.3449     516.8091       0.2397     502.1053       1.2320      53.9669       2.5900 
     -3.2876    1071.7914      98.0200     482.9491     580.9691     415.8430       0.9793     579.9898       3.2599      70.4191       1.3004 
     -3.0998    1065.4754     195.8320     477.0535     672.8854     303.4182       3.0877     669.7978       7.6463      80.9838       0.5417 
     -2.9119    1059.1098     344.5338     420.3740     764.9077     196.2097       7.7051     757.2026      14.6528      83.1635       0.1760 
     -2.7240    1057.6599     535.1525     315.3404     850.4929     107.8905      16.3386     834.1542      23.7647      75.4737       0.0382 
     -2.5362    1062.5121     727.8350     193.1831     921.0181      49.4060      28.9869     892.0313      33.3976      58.6845       0.0059 
     -2.3483    1069.5356     877.2248      94.7435     971.9683      18.7071      45.2038     926.7644      40.9407      37.9168       0.0027 
     -2.1605    1074.4944     966.8722      37.0705    1003.9426       5.9240      63.0263     940.9163      45.3239      19.3039       0.0000 
     -1.9726    1075.1480    1005.7950      11.6492    1017.4442       1.6333      81.9015     935.5427      48.1566       7.9138       0.0000 
     -1.7847    1075.1488    1019.8607       2.9658    1022.8266       0.4979     103.1194     919.7073      49.3378       2.4865       0.0000 
     -1.5969    1071.4431    1020.4638       0.6023    1021.0661       0.2314     126.5464     894.5196      49.5687       0.5770       0.0000 
     -1.4090    1073.1579    1022.5799       0.1211    1022.7010       0.1907     154.2214     868.4796      50.1620       0.1043       0.0000 
     -1.2211    1071.1457    1020.1993       0.0171    1020.2164       0.1901     185.5331     834.6832      50.7252       0.0139       0.0000 
     -1.0333    1071.7525    1019.9396       0.0028    1019.9424       0.1851     221.3464     798.5961      51.6225       0.0024       0.0000 
     -0.8454    1070.7595    1018.4671       0.0003    1018.4674       0.1915     261.9647     756.5026      52.1007       0.0000       0.0000 
     -0.6575    1070.4283    1017.8736       0.0003    1017.8738       0.1727     309.3094     708.5645      52.3819       0.0000       0.0000 
     -0.4697    1070.2106    1017.0752       0.0000    1017.0752       0.1894     361.4758     655.5994      52.9458       0.0000       0.0000 
     -0.2818    1070.5286    1017.5140       0.0000    1017.5140       0.1748     417.4308     600.0832      52.8398       0.0000       0.0000 
     -0.0939    1069.9175    1016.1498       0.0000    1016.1498       0.1772     475.5796     540.5702      53.5905       0.0000       0.0000 
      0.0939    1070.5464    1016.2615       0.0000    1016.2615       0.1897     535.8145     480.4470      54.0953       0.0000       0.0000 
      0.2818    1070.3428    1015.8462       0.0000    1015.8462       0.1759     594.4255     421.4208      54.3206       0.0000       0.0000 
      0.4697    1070.5700    1016.4487       0.0000    1016.4487       0.1753     651.8387     364.6100      53.9460       0.0000       0.0000 
      0.6575    1070.2506    1016.5250       0.0000    1016.5250       0.1684     704.9529     311.5721      53.5572       0.0000       0.0000 
      0.8454    1070.3197    1017.3303       0.0006    1017.3308       0.1695     753.2183     264.1126      52.8193       0.0000       0.0000 
      1.0333    1070.6221    1018.8227       0.0045    1018.8272       0.1721     797.2029     221.6245      51.6200       0.0027       0.0000 
      1.2211    1072.0802    1021.3328       0.0236    1021.3564       0.1725     837.3565     183.9998      50.5292       0.0223       0.0000 
      1.4090    1071.6327    1021.0769       0.1359    1021.2127       0.1719     870.0644     151.1483      50.0994       0.1487       0.0000 
      1.5969    1073.3655    1021.6799       0.6766    1022.3564       0.2185     898.9564     123.4000      50.0555       0.7352       0.0000 
      1.7847    1074.1479    1018.0445       3.1973    1021.2418       0.5377     921.5185      99.7233      49.4652       2.9031       0.0000 
      1.9726    1075.3398    1004.0758      12.4736    1016.5495       1.8898     937.8282      78.7212      48.0603       8.8402       0.0000 
      2.1605    1074.4104     961.5393      39.6401    1001.1794       6.6554     940.7121      60.4673      45.7368      20.8384       0.0005 
      2.3483    1069.4129     869.5996      99.3707     968.9702      20.7805     925.9012      43.0690      41.3209      38.3403       0.0009 
      2.5362    1062.0030     720.7838     196.8300     917.6138      52.9257     890.0294      27.5844      33.5831      57.8677       0.0127 
      2.7240    1058.6067     533.7936     314.7498     848.5434     112.0900     833.3345      15.2089      24.2306      73.6753       0.0673 
      2.9119    1059.5309     349.1613     414.9460     764.1073     199.7071     756.9081       7.1993      14.6053      80.8565       0.2547 
      3.0998    1064.6962     201.6917     470.0360     671.7277     306.4646     668.8516       2.8761       7.1922      78.6427       0.6691 
      3.2876    1072.3136     103.3659     478.3759     581.7418     417.7653     580.7152       1.0266       2.9655      68.4065       1.4345 
      3.4755    1076.2025      47.2550     455.5136     502.7686     517.4863     502.4670       0.3016       1.0002      52.3875       2.5599 
      3.6634    1078.3737      19.3305     423.4802     442.8107     596.2806     442.7270       0.0837       0.2788      34.9817       4.0218 
      3.8512    1080.2179       7.2896     393.1941     400.4837     653.6280     400.4655       0.0182       0.0536      20.5280       5.5245 
      4.0391    1079.2607       2.4701     367.2003     369.6703     692.0554     369.6672       0.0032       0.0082      10.6194       6.9074 
      4.2270    1078.1674       0.7396     344.5579     345.2975     719.9032     345.2975       0.0000       0.0005       5.1778       7.7883 
      4.4148    1077.6595       0.2083     321.7136     321.9219     744.3115     321.9219       0.0000       0.0000       2.9356       8.4906 
      4.6027    1077.3972       0.0455     296.9745     297.0200     768.7062     297.0200       0.0000       0.0000       2.3617       9.3093 
      4.7906    1076.5898       0.0100     270.3803     270.3903     793.1761     270.3903       0.0000       0.0000       2.8109      10.2124 
      4.9784    1077.1874       0.0014     240.2742     240.2756     821.6968     240.2756       0.0000       0.0000       3.7200      11.4950 
      5.1663    1078.6737       0.0000     208.7032     208.7032     852.2467     208.7032       0.0000       0.0000       4.8959      12.8279 
      5.3542    1079.2872       0.0000     175.1296     175.1296     883.4315     175.1296       0.0000       0.0000       6.4713      14.2549 
      5.5420    1083.2810       0.0000     141.4386     141.4386     917.7832     141.4386       0.0000       0.0000       8.6042      15.4550 
      5.7299    1083.5217       0.0000     107.8654     107.8654     948.5734     107.8654       0.0000       0.0000      11.2907      15.7922 
      5.9178    1085.8479       0.0000      77.3231      77.3231     978.7567      77.3231       0.0000       0.0000      14.5525      15.2157 
      6.1056    1086.3257       0.0000      51.4355      51.4355    1002.7556      51.4355       0.0000       0.0000      18.2513      13.8833 
      6.2935    1085.3553       0.0000      31.4600      31.4600    1019.8427      31.4600       0.0000       0.0000      22.1382      11.9142 
      6.4814    1085.9703       0.0000      17.5364      17.5364    1032.7446      17.5364       0.0000       0.0000      25.8073       9.8821 
      6.6692    1084.8341       0.0000       8.8663       8.8663    1038.8012       8.8663       0.0000       0.0000      28.6103       8.5563 
      6.8571    1084.3652       0.0000       3.9895       3.9895    1041.9132       3.9895       0.0000       0.0000      30.8043       7.6583 
      7.0450    1084.6192       0.0000       1.6183       1.6183    1043.2869       1.6183       0.0000       0.0000      32.4113       7.3027 
      7.2328    1083.7407       0.0000       0.5944       0.5944    1042.8533       0.5944       0.0000       0.0000      33.1822       7.1108 
      7.4207    1083.9171       0.0000       0.1811       0.1811    1043.0590       0.1811       0.0000       0.0000      33.4234       7.2536 
      7.6086    1084.2990       0.0000       0.0458       0.0458    1043.8073       0.0458       0.0000       0.0000      33.2831       7.1628 
      7.7964    1083.4883       0.0000       0.0108       0.0108    1043.4900       0.0108       0.0000       0.0000      32.7730       7.2145 
      7.9843    1084.0115       0.0000       0.0023       0.0023    1044.5519       0.0023       0.0000       0.0000      32.3140       7.1435 
      8.1721    1082.7903       0.0000       0.0011       0.0011    1043.5480       0.0011       0.0000       0.0000      31.9340       7.3071 
      8.3600    1084.1074       0.0000       0.0000       0.0000    1044.4843       0.0000       0.0000       0.0000      32.2327       7.3904 
      8.5479    1083.6049       0.0000       0.0000       0.0000    1044.4272       0.0000       0.0000       0.0000      31.8951       7.2827 
      8.7357    1083.8775       0.0000       0.0000       0.0000    1044.3875       0.0000       0.0000       0.0000      32.0727       7.4174 
      8.9236    1083.7361       0.0000       0.0000       0.0000    1043.8952       0.0000       0.0000       0.0000      32.3320       7.5088 
      9.1115    1083.4491       0.0000       0.0000       0.0000    1043.9135       0.0000       0.0000       0.0000      32.0329       7.5029 
      9.2993    1084.5623       0.0000       0.0000       0.0000    1044.6753       0.0000       0.0000       0.0000      32.4577       7.4295 
