#          R       System          PBD          PEO          PLY           PW     UPPLAYER     LOWLAYER         PRIN         PRIP         CLIO 
      0.0608    1180.4613       0.0000       0.0000       0.0000    1180.4613       0.0000       0.0000       0.0000       0.0000       0.0000 
      0.1824    1072.9439       0.0000       0.0000       0.0000    1069.9139       0.0000       0.0000       0.0000       3.0300       0.0000 
      0.3041    1062.4703       0.0000       0.0000       0.0000    1059.4006       0.0000       0.0000       0.0000       1.9531       1.1166 
      0.4257    1070.4266       0.0000       0.0000       0.0000    1068.6352       0.0000       0.0000       0.0000       0.6449       1.1465 
      0.5473    1075.8354       0.0000       0.0000       0.0000    1073.5322       0.0000       0.0000       0.0000       1.7817       0.5216 
      0.6690    1072.8377       0.0000       0.0000       0.0000    1070.8858       0.0000       0.0000       0.0000       1.6022       0.3497 
      0.7906    1068.9154       0.0000       0.0000       0.0000    1066.5570       0.0000       0.0000       0.0000       1.2731       1.0853 
      0.9122    1072.3425       0.0000       0.0000       0.0000    1070.0054       0.0000       0.0000       0.0000       1.9607       0.3764 
      1.0339    1074.5716       0.0000       0.0000       0.0000    1073.0935       0.0000       0.0000       0.0000       1.0383       0.4398 
      1.1555    1075.6465       0.0000       0.0000       0.0000    1073.9641       0.0000       0.0000       0.0000       1.2911       0.3912 
      1.2771    1075.5460       0.0000       0.0000       0.0000    1073.7040       0.0000       0.0000       0.0000       1.2013       0.6407 
      1.3987    1064.6564       0.0000       0.0000       0.0000    1062.6730       0.0000       0.0000       0.0000       1.4491       0.5342 
      1.5204    1072.5796       0.0000       0.0000       0.0000    1070.4431       0.0000       0.0000       0.0000       1.3679       0.7686 
      1.6420    1077.3511       0.0000       0.0000       0.0000    1075.4176       0.0000       0.0000       0.0000       1.4489       0.4846 
      1.7636    1065.9406       0.0000       0.0000       0.0000    1064.4408       0.0000       0.0000       0.0000       0.9452       0.5545 
      1.8853    1071.2063       0.0000       0.0000       0.0000    1069.4451       0.0000       0.0000       0.0000       1.1729       0.5883 
      2.0069    1075.2594       0.0000       0.0000       0.0000    1073.7248       0.0000       0.0000       0.0000       1.0934       0.4413 
      2.1285    1073.0080       0.0000       0.0000       0.0000    1071.2573       0.0000       0.0000       0.0000       1.2317       0.5192 
      2.2502    1070.2639       0.0000       0.0000       0.0000    1068.5345       0.0000       0.0000       0.0000       1.1099       0.6195 
      2.3718    1070.6727       0.0000       0.0000       0.0000    1068.9372       0.0000       0.0000       0.0000       1.1686       0.5668 
      2.4934    1071.5639       0.0000       0.0000       0.0000    1069.9031       0.0000       0.0000       0.0000       1.0889       0.5718 
      2.6150    1072.2848       0.0000       0.0000       0.0000    1070.4578       0.0000       0.0000       0.0000       1.2537       0.5733 
      2.7367    1073.6364       0.0000       0.0000       0.0000    1071.6452       0.0000       0.0000       0.0000       1.4816       0.5096 
      2.8583    1071.4348       0.0000       0.0000       0.0000    1069.5360       0.0000       0.0000       0.0000       1.4061       0.4927 
      2.9799    1073.3692       0.0000       0.0000       0.0000    1071.5427       0.0000       0.0000       0.0000       1.2731       0.5534 
      3.1016    1070.9262       0.0000       0.0034       0.0034    1069.2598       0.0000       0.0034       0.0000       1.1576       0.5054 
      3.2232    1073.2814       0.0000       0.0157       0.0157    1071.5710       0.0000       0.0157       0.0000       1.2266       0.4680 
      3.3448    1073.5695       0.0000       0.0467       0.0467    1071.5694       0.0000       0.0467       0.0000       1.3972       0.5561 
      3.4665    1073.4044       0.0000       0.1251       0.1251    1071.4682       0.0000       0.1251       0.0000       1.2628       0.5482 
      3.5881    1071.5194       0.0000       0.2056       0.2056    1069.4256       0.0000       0.2056       0.0000       1.2630       0.6254 
      3.7097    1071.6907       0.0000       0.4606       0.4606    1069.3951       0.0000       0.4606       0.0000       1.2423       0.5927 
      3.8313    1072.8008       0.0000       0.7725       0.7725    1070.1354       0.0000       0.7725       0.0000       1.2626       0.6304 
      3.9530    1073.1970       0.0000       1.5245       1.5245    1069.5897       0.0021       1.5224       0.0000       1.1928       0.8900 
      4.0746    1074.7217       0.0000       2.9248       2.9248    1069.5342       0.0000       2.9248       0.0000       1.2234       1.0392 
      4.1962    1072.4771       0.0000       4.7824       4.7824    1065.3224       0.0074       4.7749       0.0000       1.0214       1.3510 
      4.3179    1074.5106       0.0000       7.9258       7.9258    1063.5687       0.0158       7.9100       0.0000       1.0558       1.9602 
      4.4395    1075.0112       0.0000      12.5544      12.5544    1059.0339       0.0116      12.5428       0.0000       0.9557       2.4671 
      4.5611    1074.6033       0.0000      19.4947      19.4947    1050.9110       0.0126      19.4821       0.0000       0.8928       3.3048 
      4.6828    1075.2859       0.0000      28.2144      28.2144    1041.9184       0.0283      28.1861       0.0000       0.8614       4.2918 
      4.8044    1073.1536       0.0000      39.9647      39.9647    1027.2933       0.0227      39.9420       0.0000       0.8036       5.0921 
      4.9260    1075.4447       0.0000      54.1972      54.1972    1014.7162       0.0377      54.1595       0.0000       0.7008       5.8305 
      5.0476    1073.8401       0.0000      71.0733      71.0733     995.4914       0.0564      71.0169       0.0000       0.6187       6.6570 
      5.1693    1073.0337       0.0000      90.0890      90.0890     975.3019       0.0954      89.9936       0.0000       0.4833       7.1595 
      5.2909    1073.0415       0.0000     111.8270     111.8270     953.3421       0.1132     111.7138       0.0000       0.4837       7.3888 
      5.4125    1071.2928       0.0000     133.7384     133.7384     930.1424       0.1450     133.5933       0.0000       0.4034       7.0087 
      5.5342    1070.6293       0.0000     157.3692     157.3692     906.0281       0.1547     157.2145       0.0000       0.3060       6.9260 
      5.6558    1068.1808       0.0000     180.7089     180.7089     880.7728       0.1645     180.5444       0.0000       0.2918       6.4074 
      5.7774    1070.0616       0.0000     206.1630     206.1630     857.8222       0.2027     205.9604       0.0000       0.2475       5.8288 
      5.8991    1067.9671       0.0000     228.0392     228.0392     834.7710       0.2226     227.8166       0.0000       0.2077       4.9493 
      6.0207    1067.1287       0.0029     251.0244     251.0272     811.5048       0.2407     250.7865       0.0000       0.1742       4.4224 
      6.1423    1067.5092       0.0028     271.4008     271.4036     792.0285       0.2538     271.1498       0.0000       0.1649       3.9123 
      6.2639    1067.2317       0.0173     290.6793     290.6967     773.0348       0.2798     290.4168       0.0000       0.1436       3.3568 
      6.3856    1069.1439       0.0333     309.2369     309.2703     756.8263       0.3246     308.9457       0.0000       0.1584       2.8890 
      6.5072    1068.0179       0.0642     325.1369     325.2011     740.0727       0.3264     324.8746       0.0000       0.2152       2.5289 
      6.6288    1070.5446       0.1416     340.0884     340.2300     727.8156       0.3849     339.8450       0.0012       0.3311       2.1668 
      6.7505    1070.6849       0.3213     354.2904     354.6116     713.5675       0.4102     354.2014       0.0011       0.5918       1.9127 
      6.8721    1072.6290       0.6765     369.3418     370.0183     699.9413       0.4288     369.5895       0.0066       1.0507       1.6120 
      6.9937    1072.9208       1.3555     386.2645     387.6200     682.2283       0.4542     387.1658       0.0171       1.7919       1.2635 
      7.1154    1074.6951       2.9392     407.2760     410.2152     660.4476       0.5055     409.7097       0.0400       2.9833       1.0090 
      7.2370    1075.1072       5.8552     432.4983     438.3535     631.4196       0.6489     437.7046       0.1058       4.4855       0.7428 
      7.3586    1075.2361      11.3766     462.8641     474.2408     593.3667       0.8916     473.3492       0.2472       6.7962       0.5852 
      7.4802    1073.5692      21.6690     495.2932     516.9621     546.6559       1.4543     515.5079       0.5422       9.0530       0.3560 
      7.6019    1072.4678      39.0760     529.4622     568.5382     490.9310       2.4738     566.0644       1.0918      11.6363       0.2705 
      7.7235    1068.2314      68.7478     555.7662     624.5140     427.4486       4.7665     619.7475       1.9969      14.1221       0.1499 
      7.8451    1063.6516     113.4987     570.5484     684.0471     359.8400       8.8699     675.1773       3.6512      16.0139       0.0994 
      7.9668    1058.6392     179.2630     564.1306     743.3936     291.7787      16.0275     727.3661       5.9656      17.4594       0.0420 
      8.0884    1052.7719     265.9254     533.1540     799.0794     226.2077      26.9415     772.1379       9.0208      18.4352       0.0288 
      8.2100    1047.9785     372.1703     477.6091     849.7794     167.2663      43.1672     806.6122      12.9876      17.9289       0.0163 
      8.3317    1047.1877     492.7463     402.8459     895.5922     117.4941      65.2511     830.3411      17.0281      17.0703       0.0030 
      8.4533    1047.5470     615.4661     317.5158     932.9819      78.3324      91.9070     841.0749      21.0473      15.1824       0.0029 
      8.5749    1051.3172     732.7122     231.9464     964.6587      48.7625     123.5493     841.1094      25.1175      12.7785       0.0000 
      8.6965    1055.5586     830.8402     157.7128     988.5531      28.6177     156.6272     831.9259      28.2247      10.1632       0.0000 
      8.8182    1060.9308     908.5239      98.3685    1006.8926      15.7666     191.8072     815.0853      30.7879       7.4839       0.0000 
      8.9398    1064.8494     962.3596      56.5511    1018.9108       8.2168     226.5867     792.3240      32.5999       5.1220       0.0000 
      9.0614    1067.9494     997.5233      29.9706    1027.4940       4.0706     260.4456     767.0484      33.2039       3.1809       0.0000 
      9.1831    1068.4706    1016.4853      14.6030    1031.0884       1.8766     293.0772     738.0111      33.7282       1.7775       0.0000 
      9.3047    1069.7978    1027.2821       6.5610    1033.8430       0.8910     326.0187     707.8243      34.1086       0.9551       0.0000 
      9.4263    1069.5024    1032.4004       2.6506    1035.0509       0.4351     359.8880     675.1629      33.5364       0.4800       0.0000 
      9.5480    1068.0859    1033.4989       1.0059    1034.5050       0.2615     393.8272     640.6776      33.1246       0.1949       0.0000 
      9.6696    1068.1324    1034.6674       0.3624    1035.0298       0.2006     429.2775     605.7525      32.8293       0.0726       0.0000 
      9.7912    1069.3498    1036.3472       0.1271    1036.4743       0.1809     465.7487     570.7256      32.6721       0.0225       0.0000 
      9.9128    1067.7872    1035.2381       0.0376    1035.2756       0.1616     500.8297     534.4460      32.3462       0.0037       0.0000 
     10.0345    1066.5283    1034.1071       0.0133    1034.1204       0.1584     537.0557     497.0647      32.2489       0.0006       0.0000 
     10.1561    1068.7043    1036.3305       0.0048    1036.3352       0.1531     575.1922     461.1430      32.2148       0.0010       0.0000 
     10.2777    1068.3587    1036.2714       0.0019    1036.2733       0.1551     610.5426     425.7306      31.9303       0.0002       0.0000 
     10.3994    1066.7452    1034.9655       0.0009    1034.9664       0.1562     644.5875     390.3789      31.6223       0.0004       0.0000 
     10.5210    1067.6963    1036.1630       0.0000    1036.1630       0.1627     679.5314     356.6316      31.3706       0.0000       0.0000 
     10.6426    1068.3611    1036.8924       0.0000    1036.8924       0.1542     711.9126     324.9798      31.3145       0.0000       0.0000 
     10.7643    1067.6701    1036.7075       0.0000    1036.7075       0.1449     741.7647     294.9428      30.8178       0.0000       0.0000 
     10.8859    1067.0931    1036.4610       0.0000    1036.4610       0.1525     770.2742     266.1869      30.4796       0.0000       0.0000 
     11.0075    1068.4191    1038.2185       0.0000    1038.2185       0.1598     798.4062     239.8123      30.0408       0.0000       0.0000 
     11.1291    1068.1101    1038.3007       0.0000    1038.3007       0.1655     822.9542     215.3464      29.6440       0.0000       0.0000 
     11.2508    1067.5142    1038.1514       0.0003    1038.1517       0.1570     845.9678     192.1838      29.2055       0.0000       0.0000 
     11.3724    1069.3393    1040.1108       0.0003    1040.1110       0.1671     868.9762     171.1349      29.0612       0.0000       0.0000 
     11.4940    1069.0250    1040.0707       0.0015    1040.0722       0.1551     887.6601     152.4121      28.7970       0.0006       0.0000 
     11.6157    1068.3372    1039.8564       0.0024    1039.8588       0.1576     904.9030     134.9558      28.3192       0.0015       0.0000 
     11.7373    1069.3189    1040.9844       0.0026    1040.9870       0.1594     921.0830     119.9040      28.1609       0.0115       0.0000 
     11.8589    1069.5042    1041.3504       0.0137    1041.3641       0.1590     934.9633     106.4007      27.9433       0.0379       0.0000 
     11.9806    1069.0612    1041.1401       0.0496    1041.1898       0.1559     947.0207      94.1690      27.6084       0.1072       0.0000 
     12.1022    1070.3928    1042.2373       0.1419    1042.3793       0.1720     958.5433      83.8359      27.5841       0.2576       0.0000 
     12.2238    1070.6828    1041.7697       0.4103    1042.1800       0.2230     967.8971      74.2828      27.6116       0.6685       0.0000 
     12.3454    1071.0272    1040.5241       1.0020    1041.5260       0.3674     975.9632      65.5630      27.6169       1.5168       0.0000 
     12.4671    1071.3518    1037.2467       2.5580    1039.8048       0.7215     981.9086      57.8961      27.6511       3.1743       0.0000 
     12.5887    1072.8528    1031.6992       5.7609    1037.4600       1.6054     986.4351      51.0250      27.7774       6.0099       0.0000 
     12.7103    1072.6019    1018.2651      12.4137    1030.6788       3.5481     986.4027      44.2761      27.6775      10.6975       0.0000 
     12.8320    1071.8399     995.1902      24.4712    1019.6613       7.5806     981.3113      38.3502      27.2777      17.3193       0.0010 
     12.9536    1070.2582     957.6171      44.5343    1002.1514      15.4619     969.5396      32.6118      26.5713      26.0722       0.0012 
     13.0752    1067.7599     901.9408      74.9227     976.8635      29.3433     949.5467      27.3169      25.0622      36.4864       0.0043 
     13.1969    1062.7488     824.6580     116.2469     940.9049      51.7717     918.9212      21.9838      22.8078      47.2537       0.0108 
     13.3185    1057.9271     727.1634     168.1609     895.3243      84.8513     878.2777      17.0466      20.1030      57.6250       0.0233 
     13.4401    1054.0738     614.1971     226.0694     840.2665     130.9730     827.7980      12.4685      16.9839      65.7982       0.0521 
     13.5617    1051.9645     494.8478     283.5389     778.3867     188.9974     769.5739       8.8127      13.6398      70.8367       0.1041 
     13.6834    1050.2253     376.2855     334.6545     710.9399     256.7266     705.1922       5.7477      10.0902      72.2672       0.2013 
     13.8050    1052.3054     271.5773     372.0688     643.6461     330.7902     640.0163       3.6298       7.1657      70.3273       0.3761 
     13.9266    1057.1759     184.8103     395.1458     579.9561     406.7886     577.9097       2.0465       4.6767      65.1423       0.6120 
     14.0483    1060.7428     117.9291     402.5467     520.4758     478.6376     519.3769       1.0990       2.8365      57.8079       0.9851 
     14.1699    1064.8494      71.2253     398.4293     469.6546     543.6946     469.0726       0.5820       1.5749      48.5111       1.4140 
     14.2915    1068.1532      40.6341     385.1825     425.8166     600.7450     425.5593       0.2573       0.8403      38.7799       1.9715 
     14.4132    1070.8719      21.8282     368.0799     389.9081     648.4307     389.7851       0.1231       0.4157      29.5491       2.5683 
     14.5348    1072.0939      11.3275     349.4820     360.8094     686.8280     360.7639       0.0455       0.1879      21.1050       3.1636 
     14.6564    1072.6594       5.4276     331.1117     336.5394     718.1285     336.5184       0.0209       0.0724      14.1404       3.7787 
     14.7780    1072.7713       2.5788     313.3542     315.9330     743.3341     315.9268       0.0062       0.0331       9.0631       4.4080 
     14.8997    1072.2081       1.1828     297.2841     298.4669     763.3316     298.4655       0.0014       0.0108       5.5041       4.8947 
     15.0213    1072.9987       0.5202     282.2143     282.7346     781.6496     282.7341       0.0005       0.0043       3.1911       5.4190 
     15.1429    1072.1429       0.1950     266.9597     267.1547     797.3110     267.1547       0.0000       0.0014       1.8755       5.8004 
     15.2646    1071.5171       0.0900     251.4766     251.5666     812.5134     251.5666       0.0000       0.0007       1.1681       6.2685 
     15.3862    1071.7097       0.0289     235.3429     235.3718     828.8264     235.3718       0.0000       0.0002       0.8983       6.6130 
     15.5078    1071.9661       0.0096     218.8632     218.8728     845.2886     218.8728       0.0000       0.0000       0.7965       7.0082 
     15.6295    1071.0358       0.0047     200.9432     200.9479     861.8751     200.9479       0.0000       0.0000       0.8321       7.3808 
     15.7511    1071.9226       0.0021     182.6885     182.6906     880.5506     182.6906       0.0000       0.0000       0.9510       7.7305 
     15.8727    1072.6280       0.0010     163.8633     163.8643     899.6771     163.8643       0.0000       0.0000       1.1378       7.9488 
     15.9943    1071.8934       0.0002     144.2224     144.2226     918.1893     144.2226       0.0000       0.0000       1.3031       8.1783 
     16.1160    1073.1882       0.0002     124.8593     124.8595     938.5466     124.8595       0.0000       0.0000       1.5264       8.2557 
     16.2376    1073.3380       0.0000     105.8768     105.8768     957.5490     105.8768       0.0000       0.0000       1.7985       8.1138 
     16.3592    1072.8148       0.0000      87.5081      87.5081     975.4205      87.5081       0.0000       0.0000       2.0554       7.8309 
     16.4809    1074.0512       0.0000      70.6198      70.6198     993.7187      70.6198       0.0000       0.0000       2.3574       7.3554 
     16.6025    1073.8787       0.0000      55.1889      55.1889    1009.3016      55.1889       0.0000       0.0000       2.6626       6.7257 
     16.7241    1073.8575       0.0000      42.0957      42.0957    1022.9165      42.0957       0.0000       0.0000       2.9652       5.8801 
     16.8458    1073.7913       0.0000      30.8278      30.8278    1034.6472      30.8278       0.0000       0.0000       3.2635       5.0528 
     16.9674    1073.0807       0.0000      21.8779      21.8779    1043.3269      21.8779       0.0000       0.0000       3.6201       4.2558 
     17.0890    1072.8607       0.0000      14.9068      14.9068    1050.5997      14.9068       0.0000       0.0000       3.8923       3.4617 
     17.2106    1072.5984       0.0000       9.8750       9.8750    1055.8317       9.8750       0.0000       0.0000       4.0942       2.7974 
     17.3323    1071.9323       0.0000       6.1517       6.1517    1059.1669       6.1517       0.0000       0.0000       4.2989       2.3147 
     17.4539    1071.8923       0.0000       3.7981       3.7981    1061.7534       3.7981       0.0000       0.0000       4.4600       1.8808 
     17.5755    1071.9327       0.0000       2.1950       2.1950    1063.5173       2.1950       0.0000       0.0000       4.6059       1.6145 
     17.6972    1071.3621       0.0000       1.2319       1.2319    1064.0500       1.2319       0.0000       0.0000       4.6753       1.4049 
     17.8188    1071.1867       0.0000       0.6442       0.6442    1064.4504       0.6442       0.0000       0.0000       4.7700       1.3219 
     17.9404    1070.8257       0.0000       0.3317       0.3317    1064.3685       0.3317       0.0000       0.0000       4.8555       1.2699 
     18.0621    1071.1385       0.0000       0.1542       0.1542    1064.9600       0.1542       0.0000       0.0000       4.8207       1.2038 
     18.1837    1070.7494       0.0000       0.0727       0.0727    1064.6178       0.0727       0.0000       0.0000       4.8831       1.1759 
