#          R       System          PBD          PEO          PLY           PW     UPPLAYER     LOWLAYER 
      0.0607    1217.2717       0.0000       0.0000       0.0000    1217.2717       0.0000       0.0000 
      0.1822    1106.7460       0.0000       0.0000       0.0000    1106.7460       0.0000       0.0000 
      0.3037    1037.3847       0.0000       0.0000       0.0000    1037.3847       0.0000       0.0000 
      0.4251    1061.1119       0.0000       0.0000       0.0000    1061.1119       0.0000       0.0000 
      0.5466    1077.3455       0.0000       0.0000       0.0000    1077.3455       0.0000       0.0000 
      0.6681    1073.0056       0.0000       0.0000       0.0000    1073.0056       0.0000       0.0000 
      0.7895    1070.8908       0.0000       0.0000       0.0000    1070.8908       0.0000       0.0000 
      0.9110    1074.6762       0.0000       0.0000       0.0000    1074.6762       0.0000       0.0000 
      1.0324    1071.7583       0.0000       0.0000       0.0000    1071.7583       0.0000       0.0000 
      1.1539    1072.9899       0.0000       0.0000       0.0000    1072.9899       0.0000       0.0000 
      1.2754    1076.6687       0.0000       0.0000       0.0000    1076.6687       0.0000       0.0000 
      1.3968    1073.0006       0.0000       0.0000       0.0000    1073.0006       0.0000       0.0000 
      1.5183    1071.2359       0.0000       0.0000       0.0000    1071.2359       0.0000       0.0000 
      1.6398    1071.1741       0.0000       0.0000       0.0000    1071.1741       0.0000       0.0000 
      1.7612    1071.7199       0.0000       0.0000       0.0000    1071.7199       0.0000       0.0000 
      1.8827    1072.7185       0.0000       0.0000       0.0000    1072.7185       0.0000       0.0000 
      2.0042    1073.0046       0.0000       0.0000       0.0000    1073.0046       0.0000       0.0000 
      2.1256    1074.1560       0.0000       0.0000       0.0000    1074.1560       0.0000       0.0000 
      2.2471    1071.5648       0.0000       0.0000       0.0000    1071.5648       0.0000       0.0000 
      2.3686    1072.4429       0.0000       0.0000       0.0000    1072.4429       0.0000       0.0000 
      2.4900    1073.3568       0.0000       0.0000       0.0000    1073.3568       0.0000       0.0000 
      2.6115    1071.7456       0.0000       0.0000       0.0000    1071.7456       0.0000       0.0000 
      2.7330    1072.7929       0.0000       0.0000       0.0000    1072.7929       0.0000       0.0000 
      2.8544    1071.3109       0.0000       0.0000       0.0000    1071.3109       0.0000       0.0000 
      2.9759    1074.3884       0.0000       0.0000       0.0000    1074.3884       0.0000       0.0000 
      3.0973    1071.9217       0.0000       0.0034       0.0034    1071.9183       0.0000       0.0034 
      3.2188    1072.1640       0.0000       0.0032       0.0032    1072.1609       0.0000       0.0032 
      3.3403    1072.4040       0.0000       0.0176       0.0176    1072.3865       0.0000       0.0176 
      3.4617    1072.5786       0.0000       0.0355       0.0355    1072.5431       0.0000       0.0355 
      3.5832    1074.6081       0.0000       0.0943       0.0943    1074.5138       0.0000       0.0943 
      3.7047    1071.8446       0.0000       0.1502       0.1502    1071.6944       0.0000       0.1502 
      3.8261    1071.8427       0.0000       0.3979       0.3979    1071.4448       0.0000       0.3979 
      3.9476    1071.0424       0.0000       0.6761       0.6761    1070.3662       0.0000       0.6761 
      4.0691    1074.3881       0.0000       1.4862       1.4862    1072.9020       0.0000       1.4862 
      4.1905    1072.1013       0.0000       2.8435       2.8435    1069.2578       0.0000       2.8435 
      4.3120    1071.1942       0.0000       4.9171       4.9171    1066.2771       0.0000       4.9171 
      4.4335    1072.5152       0.0000       8.3022       8.3022    1064.2131       0.0000       8.3022 
      4.5549    1072.7495       0.0000      13.4423      13.4423    1059.3072       0.0000      13.4423 
      4.6764    1070.5051       0.0000      20.4861      20.4861    1050.0189       0.0000      20.4861 
      4.7979    1067.7495       0.0000      29.7594      29.7594    1037.9900       0.0000      29.7594 
      4.9193    1069.7778       0.0000      43.1551      43.1551    1026.6227       0.0000      43.1551 
      5.0408    1066.8736       0.0000      58.6728      58.6728    1008.2009       0.0000      58.6728 
      5.1622    1064.2005       0.0000      77.6737      77.6737     986.5270       0.0000      77.6737 
      5.2837    1062.9692       0.0000      98.3842      98.3842     964.5850       0.0000      98.3842 
      5.4052    1063.0945       0.0000     122.0534     122.0534     941.0412       0.0000     122.0534 
      5.5266    1060.6782       0.0000     145.0944     145.0944     915.5838       0.0000     145.0944 
      5.6481    1062.3030       0.0000     170.7042     170.7042     891.5987       0.0000     170.7042 
      5.7696    1060.2123       0.0000     195.9591     195.9591     864.2533       0.0000     195.9591 
      5.8910    1060.5237       0.0000     220.2566     220.2566     840.2671       0.0000     220.2566 
      6.0125    1061.3464       0.0000     244.0943     244.0943     817.2522       0.0000     244.0943 
      6.1340    1061.2420       0.0000     266.0415     266.0415     795.2004       0.0000     266.0415 
      6.2554    1062.2804       0.0027     285.1815     285.1842     777.0962       0.0000     285.1842 
      6.3769    1064.3890       0.0103     303.2847     303.2950     761.0939       0.0000     303.2950 
      6.4984    1064.9675       0.0298     318.3302     318.3600     746.6076       0.0000     318.3600 
      6.6198    1066.5326       0.0741     332.7377     332.8118     733.7209       0.0000     332.8118 
      6.7413    1068.2520       0.1475     345.4046     345.5521     722.7000       0.0023     345.5498 
      6.8627    1070.3538       0.3591     359.8583     360.2174     710.1365       0.0033     360.2141 
      6.9842    1071.0599       0.7642     375.0293     375.7936     695.2664       0.0075     375.7861 
      7.1057    1072.4379       1.5648     394.3703     395.9351     676.5027       0.0311     395.9040 
      7.2271    1073.3795       3.4252     418.6570     422.0822     651.2972       0.0772     422.0050 
      7.3486    1074.8383       6.9546     451.5152     458.4698     616.3686       0.2172     458.2526 
      7.4701    1073.6053      14.0965     490.5162     504.6127     568.9925       0.5517     504.0610 
      7.5915    1070.6248      27.2355     530.5990     557.8346     512.7900       1.4354     556.3991 
      7.7130    1066.7351      51.3117     569.0135     620.3252     446.4100       3.2713     617.0538 
      7.8345    1062.9117      91.5062     595.7224     687.2285     375.6831       6.8566     680.3719 
      7.9559    1053.9143     153.1895     598.2514     751.4410     302.4734      14.1233     737.3177 
      8.0774    1047.4984     240.2357     574.3392     814.5748     232.9236      25.9629     788.6119 
      8.1989    1040.7824     354.2964     516.7519     871.0483     169.7341      43.9043     827.1440 
      8.3203    1036.7242     486.3666     433.1128     919.4793     117.2448      68.6922     850.7872 
      8.4418    1037.2435     626.2563     335.2110     961.4673      75.7763      99.8331     861.6342 
      8.5633    1041.5101     757.5089     238.2582     995.7671      45.7431     135.3737     860.3934 
      8.6847    1048.2019     867.9212     154.4947    1022.4159      25.7861     173.7806     848.6353 
      8.8062    1053.8902     949.0492      91.2503    1040.2994      13.5907     211.1525     829.1469 
      8.9276    1059.6349    1003.9041      49.1370    1053.0412       6.5938     249.0091     804.0320 
      9.0491    1062.1284    1035.2496      23.8838    1059.1335       2.9949     283.7242     775.4093 
      9.1706    1063.4401    1051.4305      10.6677    1062.0982       1.3421     318.1751     743.9229 
      9.2920    1063.4773    1058.4619       4.3604    1062.8223       0.6549     350.9933     711.8290 
      9.4135    1063.7953    1061.7892       1.6374    1063.4265       0.3687     384.7909     678.6357 
      9.5350    1063.5432    1062.7147       0.5932    1063.3079       0.2352     418.3026     645.0055 
      9.6564    1063.4652    1063.0769       0.1920    1063.2689       0.1963     452.5724     610.6964 
      9.7779    1062.4770    1062.2317       0.0750    1062.3066       0.1703     488.1709     574.1358 
      9.8994    1062.7337    1062.5495       0.0167    1062.5662       0.1676     523.2731     539.2932 
     10.0208    1063.6746    1063.4992       0.0072    1063.5064       0.1682     560.2693     503.2371 
     10.1423    1061.9864    1061.8274       0.0032    1061.8306       0.1559     595.4028     466.4277 
     10.2638    1063.2063    1063.0507       0.0006    1063.0513       0.1551     631.3478     431.7035 
     10.3852    1063.6444    1063.4865       0.0000    1063.4865       0.1578     665.7246     397.7620 
     10.5067    1063.3952    1063.2405       0.0000    1063.2405       0.1548     699.6526     363.5878 
     10.6282    1062.3034    1062.1405       0.0000    1062.1405       0.1629     731.1849     330.9556 
     10.7496    1063.8499    1063.6881       0.0000    1063.6881       0.1618     762.5731     301.1150 
     10.8711    1064.1587    1064.0028       0.0000    1064.0028       0.1561     792.6256     271.3770 
     10.9925    1063.4414    1063.2927       0.0000    1063.2927       0.1486     818.8160     244.4767 
     11.1140    1063.4995    1063.3388       0.0000    1063.3388       0.1607     844.6580     218.6808 
     11.2355    1064.3960    1064.2483       0.0000    1064.2483       0.1477     868.5241     195.7242 
     11.3569    1064.8166    1064.6692       0.0000    1064.6692       0.1474     890.1991     174.4701 
     11.4784    1064.0742    1063.9234       0.0000    1063.9234       0.1507     908.6139     155.3095 
     11.5999    1064.5690    1064.4173       0.0017    1064.4190       0.1499     926.5006     137.9183 
     11.7213    1064.9880    1064.8318       0.0050    1064.8368       0.1512     943.2818     121.5551 
     11.8428    1065.7797    1065.6120       0.0119    1065.6239       0.1558     957.7899     107.8340 
     11.9643    1064.8757    1064.7040       0.0295    1064.7335       0.1423     969.2170      95.5166 
     12.0857    1065.6900    1065.4298       0.0977    1065.5275       0.1625     981.2390      84.2885 
     12.2072    1066.0666    1065.5612       0.3019    1065.8633       0.2033     991.2801      74.5832 
     12.3287    1065.5866    1064.3981       0.8747    1065.2729       0.3136     999.7791      65.4938 
     12.4501    1065.8733    1062.9623       2.3260    1065.2883       0.5848    1007.4879      57.8005 
     12.5716    1065.5483    1058.3414       5.8300    1064.1714       1.3768    1013.7298      50.4415 
     12.6930    1064.1380    1047.3986      13.4329    1060.8314       3.3066    1016.8157      44.0156 
     12.8145    1061.6558    1025.6021      28.5550    1054.1569       7.4988    1016.3030      37.8540 
     12.9360    1057.8204     986.7567      54.9588    1041.7155      16.1049    1009.5027      32.2130 
     13.0574    1050.1073     921.7403      96.3483    1018.0888      32.0186     991.8940      26.1947 
     13.1789    1041.4247     828.1827     154.4269     982.6096      58.8152     962.0116      20.5980 
     13.3004    1032.1274     707.0894     225.9391     933.0285      99.0988     917.5886      15.4399 
     13.4218    1026.8257     569.5453     302.4831     872.0285     154.7972     861.2127      10.8157 
     13.5433    1025.3589     428.4736     372.7387     801.2122     224.1467     794.1932       7.0190 
     13.6648    1028.7830     299.9086     425.2849     725.1934     303.5896     721.0015       4.1920 
     13.7862    1036.9266     195.5519     455.5666     651.1184     385.8082     648.7925       2.3259 
     13.9077    1044.8058     118.7636     460.6711     579.4347     465.3711     578.2556       1.1791 
     14.0292    1052.7046      67.4133     448.2207     515.6340     537.0706     515.0689       0.5650 
     14.1506    1058.9682      35.7509     424.7497     460.5006     598.4676     460.2687       0.2319 
     14.2721    1063.1985      18.2304     395.5728     413.8032     649.3952     413.7040       0.0992 
     14.3936    1065.2104       8.7081     366.9875     375.6956     689.5148     375.6625       0.0331 
     14.5150    1066.6144       4.0366     341.2322     345.2688     721.3455     345.2544       0.0144 
     14.6365    1066.2496       1.7844     318.0314     319.8158     746.4337     319.8126       0.0032 
     14.7579    1065.8534       0.7628     298.7354     299.4982     766.3553     299.4962       0.0019 
     14.8794    1064.6082       0.3162     281.4965     281.8127     782.7955     281.8127       0.0000 
     15.0009    1064.4018       0.1282     266.0481     266.1763     798.2255     266.1763       0.0000 
     15.1223    1063.1659       0.0483     249.8523     249.9006     813.2655     249.9006       0.0000 
     15.2438    1062.1413       0.0144     233.4982     233.5127     828.6287     233.5127       0.0000 
     15.3653    1061.5955       0.0089     216.6859     216.6948     844.9007     216.6948       0.0000 
     15.4867    1061.1880       0.0017     198.1518     198.1536     863.0344     198.1536       0.0000 
     15.6082    1060.6271       0.0006     178.7689     178.7696     881.8574     178.7696       0.0000 
     15.7297    1060.6064       0.0002     158.7502     158.7504     901.8562     158.7504       0.0000 
     15.8511    1060.9994       0.0002     138.1466     138.1468     922.8526     138.1468       0.0000 
     15.9726    1061.6395       0.0000     117.7256     117.7256     943.9139     117.7256       0.0000 
     16.0941    1062.2381       0.0000      97.9210      97.9210     964.3171      97.9210       0.0000 
     16.2155    1062.8510       0.0000      79.0418      79.0418     983.8093      79.0418       0.0000 
     16.3370    1064.4019       0.0000      62.2740      62.2740    1002.1280      62.2740       0.0000 
     16.4585    1064.7679       0.0000      47.3999      47.3999    1017.3682      47.3999       0.0000 
     16.5799    1066.0413       0.0000      34.9045      34.9045    1031.1368      34.9045       0.0000 
     16.7014    1066.7521       0.0000      24.7446      24.7446    1042.0075      24.7446       0.0000 
     16.8228    1067.9462       0.0000      16.9294      16.9294    1051.0166      16.9294       0.0000 
     16.9443    1068.0458       0.0000      11.1197      11.1197    1056.9261      11.1197       0.0000 
     17.0658    1068.4699       0.0000       6.9234       6.9234    1061.5464       6.9234       0.0000 
     17.1872    1069.2436       0.0000       4.2283       4.2283    1065.0152       4.2283       0.0000 
     17.3087    1069.3410       0.0000       2.4437       2.4437    1066.8973       2.4437       0.0000 
     17.4302    1068.6788       0.0000       1.3451       1.3451    1067.3336       1.3451       0.0000 
     17.5516    1068.9594       0.0000       0.7051       0.7051    1068.2543       0.7051       0.0000 
     17.6731    1069.4199       0.0000       0.3560       0.3560    1069.0639       0.3560       0.0000 
     17.7946    1069.0275       0.0000       0.1769       0.1769    1068.8505       0.1769       0.0000 
     17.9160    1068.3805       0.0000       0.0790       0.0790    1068.3015       0.0790       0.0000 
     18.0375    1068.9503       0.0000       0.0348       0.0348    1068.9156       0.0348       0.0000 
     18.1590    1069.1445       0.0000       0.0147       0.0147    1069.1298       0.0147       0.0000 
