#       system       inn_enc       out_enc      diff_enc         rs   gamma_rs            c0          kc         kg       kg/kc          eb       de/dc            cm 
#                    [1/nm2]       [1/nm2]       [1/nm2]       [nm]   [bar*nm]        [1/nm]       [kbT]      [kbT]      [adim]   [kbT/nm2]   [kbT/nm3]        [1/nm] 
          Neat   0.000/0.000   0.000/0.000   0.000/0.000   11.6/0.4     201/16   0.694/0.025    39.2/5.3    -493/47   -12.6/1.2    44.0/2.6   -37.6/1.5  -0.132/0.010 
     N500-P800   0.049/0.005   0.180/0.038   0.131/0.034   11.8/0.9     116/19   0.445/0.028    38.6/5.1    -356/60    -9.2/1.5    19.2/1.8   -21.8/2.0  -0.127/0.018 
   N1000-P1600   0.088/0.011   0.251/0.040   0.163/0.031   12.5/1.3      69/16   0.327/0.039    38.4/4.9    -311/72    -8.1/1.9    10.9/1.8   -13.6/1.8  -0.114/0.023 
