#       Time        gau_tot        gau_tot 
#       [ns]         [kb*T]      [1e-20 J] 
     2500.00      -106.5525       -44.1335 
     3000.00      -105.3302       -43.6272 
     3500.00       -99.9608       -41.4032 
     4000.00       -91.3435       -37.8340 
     4500.00       -88.3139       -36.5791 
     5000.00       -97.3844       -40.3361 
