#       Time     pres_tan     pres_nor     pres_lat    gamma_low    gamma_upp    gamma_tot 
#       [ns]        [bar]        [bar]        [bar]     [bar*nm]     [bar*nm]     [bar*nm] 
     2500.00       0.6589       0.6067       0.0521       8.2942      -8.3331      -0.8469 
     3000.00       1.1283       1.0767       0.0516      -0.3423      -1.0063      -0.7968 
     3500.00       0.9745       0.9128       0.0617      -4.7156       3.8296      -0.9161 
     4000.00       0.6240       0.5699       0.0541      -1.7574       1.9721      -0.6404 
     4500.00       1.4795       1.1629       0.3166      -6.3639       1.0795      -5.8798 
     5000.00       1.3135       0.9710       0.3425      -7.9441       1.8597      -6.0103 
