#       Time        tau_low        tau_upp        tau_tot   tau_avg_mlay   tau_avg_mlay 
#       [ns]      [kb*T/nm]      [kb*T/nm]      [kb*T/nm]      [kb*T/nm]   [1e-20 J/nm] 
     2500.00        -4.9856         7.1139         2.1281         6.0498         2.5058 
     3000.00        -6.5860         6.0925        -0.4945         6.3393         2.6257 
     3500.00        -6.7575         5.7870        -0.9710         6.2723         2.5979 
     4000.00        -5.6872         5.7682         0.0817         5.7277         2.3724 
     4500.00        -6.3352         5.9435        -0.3919         6.1393         2.5429 
     5000.00        -6.9523         6.3971        -0.5551         6.6747         2.7646 
