#       Time        tau_low        tau_upp        tau_tot   tau_avg_mlay   tau_avg_mlay 
#       [ns]      [kb*T/nm]      [kb*T/nm]      [kb*T/nm]      [kb*T/nm]   [1e-20 J/nm] 
      500.00        -5.9891         5.9310        -0.0579         5.9600         2.4686 
     1000.00        -6.4902         5.6378        -0.8521         6.0640         2.5117 
     1500.00        -6.4499         4.7211        -1.7288         5.5855         2.3135 
     2000.00        -5.2913         5.7487         0.4576         5.5200         2.2864 
     2500.00        -6.2201         5.1415        -1.0788         5.6808         2.3530 
     3000.00        -6.1825         5.5515        -0.6314         5.8670         2.4301 
     3500.00        -6.0767         5.7495        -0.3270         5.9131         2.4492 
     4000.00        -6.0958         5.8630        -0.2327         5.9794         2.4767 
