#          R        gamma        bendm 
#       [nm]     [bar*nm]   [bar*nm^2] 
        1.03    3017.8662   -6236.5187 
        1.16    2416.7503   -5579.1918 
        1.28    1979.1225   -5046.8787 
        1.40    1650.6788   -4606.9502 
        1.52    1397.7403   -4236.9388 
        1.64    1199.1402   -3921.8293 
        1.76    1040.2478   -3649.9876 
        1.89     911.1554   -3413.0266 
        2.01     804.8634   -3204.5924 
        2.13     716.3125   -3019.7832 
        2.25     641.7730   -2854.7571 
        2.37     578.4460   -2706.4602 
        2.50     524.1980   -2572.4343 
        2.62     477.3801   -2450.6787 
        2.74     436.7013   -2339.5483 
        2.86     401.1117   -2237.5977 
        2.98     369.8515   -2143.8515 
        3.10     342.2286   -2057.2592 
        3.23     317.7045   -1977.0034 
        3.35     295.8369   -1902.3854 
        3.47     276.2595   -1832.8044 
        3.59     258.6672   -1767.7413 
        3.71     242.8039   -1706.7450 
        3.83     228.4536   -1649.4217 
        3.96     215.4331   -1595.4260 
        4.08     203.5859   -1544.4537 
        4.20     192.7781   -1496.2361 
        4.32     182.8863   -1450.4979 
        4.44     173.8270   -1407.1017 
        4.56     165.5049   -1365.8191 
        4.69     157.8445   -1326.4802 
        4.81     150.7797   -1288.9321 
        4.93     144.2523   -1253.0371 
        5.05     138.2111   -1218.6707 
        5.17     132.6111   -1185.7201 
        5.29     127.4119   -1154.0831 
        5.42     122.5782   -1123.6664 
        5.54     118.0780   -1094.3850 
        5.66     113.8830   -1066.1613 
        5.78     109.9647   -1038.9021 
        5.90     106.3066   -1012.5869 
        6.02     102.8849    -987.1329 
        6.15      99.6810    -962.4848 
        6.27      96.6782    -938.5918 
        6.39      93.8613    -915.4068 
        6.51      91.2166    -892.8862 
        6.63      88.7315    -870.9896 
        6.75      86.3946    -849.6797 
        6.88      84.1955    -828.9216 
        7.00      82.1248    -808.6829 
        7.12      80.1737    -788.9335 
        7.24      78.3327    -769.6296 
        7.36      76.5977    -750.7766 
        7.49      74.9602    -732.3340 
        7.61      73.4142    -714.2786 
        7.73      71.9538    -696.5890 
        7.85      70.5739    -679.2449 
        7.97      69.2695    -662.2275 
        8.09      68.0361    -645.5188 
        8.22      66.8696    -629.1021 
        8.34      65.7661    -612.9616 
        8.46      64.7219    -597.0823 
        8.58      63.7330    -581.4376 
        8.70      62.7979    -566.0398 
        8.82      61.9128    -550.8635 
        8.95      61.0750    -535.8969 
        9.07      60.2820    -521.1286 
        9.19      59.5314    -506.5481 
        9.31      58.8211    -492.1454 
        9.43      58.1490    -477.9109 
        9.55      57.5130    -463.8356 
        9.68      56.9116    -449.9108 
        9.80      56.3428    -436.1284 
        9.92      55.8052    -422.4806 
       10.04      55.2968    -408.9490 
       10.16      54.8170    -395.5487 
       10.28      54.3642    -382.2619 
       10.41      53.9369    -369.0821 
       10.53      53.5342    -356.0034 
       10.65      53.1548    -343.0198 
       10.77      52.7977    -330.1258 
       10.89      52.4619    -317.3162 
       11.01      52.1464    -304.5857 
       11.14      51.8505    -291.9297 
       11.26      51.5732    -279.3434 
       11.38      51.3138    -266.8224 
       11.50      51.0713    -254.3523 
       11.62      50.8453    -241.9493 
       11.74      50.6351    -229.5995 
       11.87      50.4400    -217.2989 
       11.99      50.2593    -205.0441 
       12.11      50.0926    -192.8315 
       12.23      49.9391    -180.6580 
       12.35      49.7985    -168.5201 
       12.48      49.6702    -156.4151 
       12.60      49.5537    -144.3397 
       12.72      49.4486    -132.2914 
       12.84      49.3544    -120.2574 
       12.96      49.2709    -108.2549 
       13.08      49.1975     -96.2715 
       13.21      49.1339     -84.3048 
       13.33      49.0797     -72.3524 
       13.45      49.0346     -60.4120 
       13.57      48.9983     -48.4816 
       13.69      48.9704     -36.5590 
       13.81      48.9507     -24.6421 
       13.94      48.9389     -12.7291 
       14.06      48.9347      -0.8181 
       14.18      48.9378      11.0929 
       14.30      48.9480      23.0152 
       14.42      48.9651      34.9311 
       14.54      48.9888      46.8520 
       14.67      49.0190      58.7794 
       14.79      49.0553      70.7149 
       14.91      49.0976      82.6600 
       15.03      49.1457      94.6161 
       15.15      49.1995     106.5846 
       15.27      49.2587     118.5669 
       15.40      49.3231     130.5642 
       15.52      49.3927     142.5778 
       15.64      49.4672     154.6089 
       15.76      49.5466     166.6687 
       15.88      49.6305     178.7385 
       16.00      49.7190     190.8292 
       16.13      49.8118     202.9420 
       16.25      49.9089     215.0779 
       16.37      50.0100     227.2380 
       16.49      50.1152     239.4231 
       16.61      50.2243     251.6344 
       16.73      50.3371     263.8726 
       16.86      50.4536     276.1388 
       16.98      50.5736     288.4337 
       17.10      50.6971     300.7583 
       17.22      50.8240     313.1235 
       17.34      50.9541     325.5098 
       17.47      51.0874     337.9282 
       17.59      51.2238     350.3794 
       17.71      51.3631     362.8642 
       17.83      51.5054     375.3832 
       17.95      51.6505     387.9372 
       18.07      51.7983     400.5269 
