#       Time        tau_low        tau_upp        tau_tot   tau_avg_mlay   tau_avg_mlay 
#       [ns]      [kb*T/nm]      [kb*T/nm]      [kb*T/nm]      [kb*T/nm]   [1e-20 J/nm] 
     2500.00        -5.5770         5.4013        -0.1747         5.4891         2.2736 
     3000.00        -5.2487         5.7204         0.4729         5.4845         2.2717 
     3500.00        -5.1364         6.4241         1.2859         5.7802         2.3941 
     4000.00        -5.3106         6.0681         0.7583         5.6893         2.3565 
     4500.00        -5.0318         6.9392         1.9076         5.9855         2.4792 
     5000.00        -3.9248         7.0895         3.1649         5.5072         2.2810 
