#          R        gamma        bendm 
#       [nm]     [bar*nm]   [bar*nm^2] 
        1.03    4928.5969  -10162.6574 
        1.15    3948.1987   -9090.7473 
        1.28    3233.9593   -8221.7463 
        1.40    2698.4583   -7503.9183 
        1.52    2286.1076   -6899.8894 
        1.64    1962.3945   -6385.2124 
        1.76    1703.2683   -5940.5972 
        1.88    1492.9873   -5553.1068 
        2.01    1319.7704   -5211.7371 
        2.13    1175.6475   -4909.0616 
        2.25    1054.2883   -4638.3143 
        2.37     951.3256   -4394.9639 
        2.49     863.1051   -4174.5999 
        2.61     787.0813   -3974.3245 
        2.73     721.0204   -3791.1243 
        2.86     663.3628   -3623.0761 
        2.98     612.6777   -3468.0402 
        3.10     567.9701   -3324.7021 
        3.22     528.2867   -3191.4920 
        3.34     492.9710   -3067.4905 
        3.46     461.3911   -2951.6058 
        3.59     433.0274   -2842.9057 
        3.71     407.5086   -2740.8339 
        3.83     384.4400   -2644.5799 
        3.95     363.5603   -2553.7390 
        4.07     344.5796   -2467.6657 
        4.19     327.3106   -2386.0634 
        4.32     311.5362   -2308.4084 
        4.44     297.1195   -2234.4825 
        4.56     283.8951   -2163.8542 
        4.68     271.7613   -2096.3627 
        4.80     260.5902   -2031.6474 
        4.92     250.3053   -1969.5905 
        5.04     240.8062   -1909.8867 
        5.17     232.0346   -1852.4504 
        5.29     223.9107   -1797.0201 
        5.41     216.3896   -1743.5351 
        5.53     209.4072   -1691.7688 
        5.65     202.9285   -1641.6796 
        5.77     196.9014   -1593.0692 
        5.90     191.2985   -1545.9110 
        6.02     186.0771   -1500.0297 
        6.14     181.2154   -1455.4105 
        6.26     176.6782   -1411.8971 
        6.38     172.4481   -1369.4841 
        6.50     168.4956   -1328.0309 
        6.62     164.8069   -1287.5397 
        6.75     161.3572   -1247.8828 
        6.87     158.1353   -1209.0689 
        6.99     155.1203   -1170.9811 
        7.11     152.3030   -1133.6330 
        7.23     149.6657   -1096.9172 
        7.35     147.2008   -1060.8512 
        7.48     144.8933   -1025.3357 
        7.60     142.7368    -990.3916 
        7.72     140.7186    -955.9261 
        7.84     138.8332    -921.9632 
        7.96     137.0696    -888.4158 
        8.08     135.4234    -855.3102 
        8.20     133.8850    -822.5644 
        8.33     132.4507    -790.2067 
        8.45     131.1122    -758.1593 
        8.57     129.8662    -726.4522 
        8.69     128.7057    -695.0116 
        8.81     127.6277    -663.8687 
        8.93     126.6261    -632.9530 
        9.06     125.6984    -602.2970 
        9.18     124.8393    -571.8329 
        9.30     124.0466    -541.5946 
        9.42     123.3155    -511.5166 
        9.54     122.6442    -481.6337 
        9.66     122.0290    -451.9070 
        9.78     121.4668    -422.2989 
        9.91     120.9559    -392.8456 
       10.03     120.4929    -363.4864 
       10.15     120.0764    -334.2581 
       10.27     119.7034    -305.1018 
       10.39     119.3726    -276.0549 
       10.51     119.0814    -247.0596 
       10.64     118.8286    -218.1543 
       10.76     118.6121    -189.2822 
       10.88     118.4304    -160.4823 
       11.00     118.2819    -131.6987 
       11.12     118.1653    -102.9710 
       11.24     118.0791     -74.2443 
       11.36     118.0221     -45.5585 
       11.49     117.9930     -16.8597 
       11.61     117.9907      11.8118 
       11.73     118.0140      40.5095 
       11.85     118.0619      69.1922 
       11.97     118.1334      97.9131 
       12.09     118.2276     126.6305 
       12.22     118.3436     155.3971 
       12.34     118.4805     184.1709 
       12.46     118.6375     213.0040 
       12.58     118.8138     241.8540 
       12.70     119.0088     270.7728 
       12.82     119.2216     299.7175 
       12.95     119.4517     328.7398 
       13.07     119.6982     357.7962 
       13.19     119.9610     386.9384 
       13.31     120.2389     416.1224 
       13.43     120.5318     445.3998 
       13.55     120.8389     474.7261 
       13.67     121.1600     504.1529 
       13.80     121.4942     533.6351 
       13.92     121.8415     563.2244 
       14.04     122.2009     592.8753 
       14.16     122.5726     622.6396 
       14.28     122.9556     652.4710 
       14.40     123.3501     682.4216 
       14.53     123.7551     712.4446 
       14.65     124.1709     742.5922 
       14.77     124.5965     772.8173 
       14.89     125.0322     803.1719 
       15.01     125.4771     833.6086 
       15.13     125.9311     864.1545 
       15.25     126.3943     894.8371 
       15.38     126.8658     925.6081 
       15.50     127.3460     956.5201 
       15.62     127.8339     987.5243 
       15.74     128.3300    1018.6737 
       15.86     128.8333    1049.9188 
       15.98     129.3444    1081.3131 
       16.11     129.8622    1112.8066 
       16.23     130.3873    1144.4528 
       16.35     130.9187    1176.2013 
       16.47     131.4571    1208.1061 
       16.59     132.0013    1240.1161 
       16.71     132.5522    1272.2857 
       16.83     133.1086    1304.5634 
       16.96     133.6712    1337.0037 
       17.08     134.2390    1369.5547 
       17.20     134.8127    1402.2712 
       17.32     135.3913    1435.1009 
       17.44     135.9756    1468.0990 
       17.56     136.5644    1501.2125 
       17.69     137.1585    1534.4972 
       17.81     137.7570    1567.8993 
       17.93     138.3606    1601.4751 
       18.05     138.9682    1635.1705 
